-- Merging decision tree log ---
manifest
ADDED from C:\Users\USER\Desktop\github\ezmath\platforms\android\app\src\main\AndroidManifest.xml:2:1-31:12
INJECTED from C:\Users\USER\Desktop\github\ezmath\platforms\android\app\src\main\AndroidManifest.xml:2:1-31:12
INJECTED from C:\Users\USER\Desktop\github\ezmath\platforms\android\app\src\main\AndroidManifest.xml:2:1-31:12
INJECTED from C:\Users\USER\Desktop\github\ezmath\platforms\android\app\src\main\AndroidManifest.xml:2:1-31:12
MERGED from [me.leolin:ShortcutBadger:1.1.4] C:\Users\USER\.gradle\caches\transforms-1\files-1.1\ShortcutBadger-1.1.4.aar\9a2db3d288cc06b1564d5ffbbe91129a\AndroidManifest.xml:2:1-35:12
MERGED from [com.google.firebase:firebase-crash:16.0.1] C:\Users\USER\.gradle\caches\transforms-1\files-1.1\firebase-crash-16.0.1.aar\344d9b1208de8b278ae6ece6714a2254\AndroidManifest.xml:17:1-27:12
MERGED from [com.google.firebase:firebase-auth:16.0.2] C:\Users\USER\.gradle\caches\transforms-1\files-1.1\firebase-auth-16.0.2.aar\c5f069bb0bb706f73076c582768ba6b8\AndroidManifest.xml:17:1-38:12
MERGED from [com.facebook.android:facebook-android-sdk:4.35.0] C:\Users\USER\.gradle\caches\transforms-1\files-1.1\facebook-android-sdk-4.35.0.aar\0b35d2287ea6b026b70382b83e77badb\AndroidManifest.xml:21:1-31:12
MERGED from [com.google.android.gms:play-services-tagmanager:16.0.1] C:\Users\USER\.gradle\caches\transforms-1\files-1.1\play-services-tagmanager-16.0.1.aar\d7b361b7d23ddb91c5858e55e3897aeb\AndroidManifest.xml:17:1-22:12
MERGED from [com.google.firebase:firebase-core:16.0.1] C:\Users\USER\.gradle\caches\transforms-1\files-1.1\firebase-core-16.0.1.aar\a20808056a3d211b9ea0cca0b1060d46\AndroidManifest.xml:2:1-9:12
MERGED from [com.google.firebase:firebase-messaging:17.1.0] C:\Users\USER\.gradle\caches\transforms-1\files-1.1\firebase-messaging-17.1.0.aar\e662ed27d96b874b70c0973d80ee9a08\AndroidManifest.xml:17:1-37:12
MERGED from [com.google.firebase:firebase-config:16.0.0] C:\Users\USER\.gradle\caches\transforms-1\files-1.1\firebase-config-16.0.0.aar\a869d4f45f07c4e04380e11fafc398f4\AndroidManifest.xml:17:1-24:12
MERGED from [com.google.firebase:firebase-perf:16.0.0] C:\Users\USER\.gradle\caches\transforms-1\files-1.1\firebase-perf-16.0.0.aar\18e2fa54227d928988f88181698bcebe\AndroidManifest.xml:17:1-41:12
MERGED from [:CordovaLib] C:\Users\USER\Desktop\github\ezmath\platforms\android\CordovaLib\build\intermediates\manifests\full\debug\AndroidManifest.xml:20:1-27:12
MERGED from [com.google.android.gms:play-services-flags:15.0.1] C:\Users\USER\.gradle\caches\transforms-1\files-1.1\play-services-flags-15.0.1.aar\01b69edc7aa18d3a9fc563c9010590d0\AndroidManifest.xml:17:1-22:12
MERGED from [com.google.firebase:firebase-auth-interop:16.0.0] C:\Users\USER\.gradle\caches\transforms-1\files-1.1\firebase-auth-interop-16.0.0.aar\a407dfcb082959cf99fb5eff7597bd97\AndroidManifest.xml:2:1-10:12
MERGED from [com.google.firebase:firebase-measurement-connector-impl:16.0.1] C:\Users\USER\.gradle\caches\transforms-1\files-1.1\firebase-measurement-connector-impl-16.0.1.aar\c7ee6fb48c1881327a48a154f1c6411b\AndroidManifest.xml:17:1-34:12
MERGED from [com.google.firebase:firebase-abt:16.0.0] C:\Users\USER\.gradle\caches\transforms-1\files-1.1\firebase-abt-16.0.0.aar\9512f3b833f403f61936df0be865b0c9\AndroidManifest.xml:2:1-7:12
MERGED from [com.google.android.gms:play-services-tagmanager-api:16.0.1] C:\Users\USER\.gradle\caches\transforms-1\files-1.1\play-services-tagmanager-api-16.0.1.aar\493547ac8c42459d031d3678916ccf00\AndroidManifest.xml:17:1-47:12
MERGED from [com.google.firebase:firebase-analytics:16.0.1] C:\Users\USER\.gradle\caches\transforms-1\files-1.1\firebase-analytics-16.0.1.aar\c93e50037aac1cf5df075420ec8327ae\AndroidManifest.xml:17:1-55:12
MERGED from [com.google.firebase:firebase-analytics-impl:16.1.1] C:\Users\USER\.gradle\caches\transforms-1\files-1.1\firebase-analytics-impl-16.1.1.aar\1d1f5fabb2846d3880f6d051477de6d3\AndroidManifest.xml:17:1-40:12
MERGED from [com.google.firebase:firebase-iid:16.2.0] C:\Users\USER\.gradle\caches\transforms-1\files-1.1\firebase-iid-16.2.0.aar\8e3d19787330005bca9b125a79b78656\AndroidManifest.xml:17:1-65:12
MERGED from [com.google.firebase:firebase-common:16.0.0] C:\Users\USER\.gradle\caches\transforms-1\files-1.1\firebase-common-16.0.0.aar\50314bcaae893f5122d119c7fbdcc949\AndroidManifest.xml:2:1-16:12
MERGED from [com.google.android.gms:play-services-analytics-impl:16.0.1] C:\Users\USER\.gradle\caches\transforms-1\files-1.1\play-services-analytics-impl-16.0.1.aar\f56aee114d00e8ccd9a7faae9a0f7ef3\AndroidManifest.xml:17:1-31:12
MERGED from [com.google.android.gms:play-services-clearcut:15.0.1] C:\Users\USER\.gradle\caches\transforms-1\files-1.1\play-services-clearcut-15.0.1.aar\ffe89055ef584b75176adff760815493\AndroidManifest.xml:17:1-24:12
MERGED from [com.google.android.gms:play-services-phenotype:15.0.1] C:\Users\USER\.gradle\caches\transforms-1\files-1.1\play-services-phenotype-15.0.1.aar\1a158f1c58875f3003a65672ce5102b6\AndroidManifest.xml:17:1-24:12
MERGED from [com.google.firebase:firebase-iid-interop:16.0.0] C:\Users\USER\.gradle\caches\transforms-1\files-1.1\firebase-iid-interop-16.0.0.aar\dce2477d994cbc8709bfaf62767e9665\AndroidManifest.xml:2:1-10:12
MERGED from [com.google.android.gms:play-services-base:15.0.1] C:\Users\USER\.gradle\caches\transforms-1\files-1.1\play-services-base-15.0.1.aar\436b01fa1908655fa9a35019e5ea6e20\AndroidManifest.xml:17:1-29:12
MERGED from [com.google.android.gms:play-services-tasks:15.0.1] C:\Users\USER\.gradle\caches\transforms-1\files-1.1\play-services-tasks-15.0.1.aar\6f9977fca89af71fa125ed693f69ea9e\AndroidManifest.xml:2:1-9:12
MERGED from [com.google.android.gms:play-services-ads-identifier:15.0.1] C:\Users\USER\.gradle\caches\transforms-1\files-1.1\play-services-ads-identifier-15.0.1.aar\0dd7d8f982ba3c2bebcae82adc5f443d\AndroidManifest.xml:17:1-24:12
MERGED from [com.google.android.gms:play-services-stats:15.0.1] C:\Users\USER\.gradle\caches\transforms-1\files-1.1\play-services-stats-15.0.1.aar\b183550fd8a37a142e4a9db851be1feb\AndroidManifest.xml:2:1-9:12
MERGED from [com.google.firebase:firebase-measurement-connector:16.0.0] C:\Users\USER\.gradle\caches\transforms-1\files-1.1\firebase-measurement-connector-16.0.0.aar\cb465ec6d908f6a48d698f62993ad548\AndroidManifest.xml:17:1-25:12
MERGED from [com.google.android.gms:play-services-basement:15.0.1] C:\Users\USER\.gradle\caches\transforms-1\files-1.1\play-services-basement-15.0.1.aar\bb926056b08e5fcb7dda06c84676af3e\AndroidManifest.xml:17:1-28:12
MERGED from [com.google.android.gms:play-services-measurement-base:16.0.0] C:\Users\USER\.gradle\caches\transforms-1\files-1.1\play-services-measurement-base-16.0.0.aar\4e7615b876d056b079655a9fb0eea329\AndroidManifest.xml:17:1-24:12
MERGED from [com.facebook.android:facebook-login:4.35.0] C:\Users\USER\.gradle\caches\transforms-1\files-1.1\facebook-login-4.35.0.aar\4e168e19a6f5280f92cca718889bea83\AndroidManifest.xml:21:1-31:12
MERGED from [com.facebook.android:facebook-share:4.35.0] C:\Users\USER\.gradle\caches\transforms-1\files-1.1\facebook-share-4.35.0.aar\1d61b3cc2ce27863c5331ad9fa8752bb\AndroidManifest.xml:21:1-31:12
MERGED from [com.facebook.android:facebook-common:4.35.0] C:\Users\USER\.gradle\caches\transforms-1\files-1.1\facebook-common-4.35.0.aar\22b30b68eac818cfa009782448bb4405\AndroidManifest.xml:21:1-37:12
MERGED from [com.facebook.android:facebook-places:4.35.0] C:\Users\USER\.gradle\caches\transforms-1\files-1.1\facebook-places-4.35.0.aar\9392908c9f4ee28a0bfc77da94775a46\AndroidManifest.xml:21:1-31:12
MERGED from [com.facebook.android:facebook-applinks:4.35.0] C:\Users\USER\.gradle\caches\transforms-1\files-1.1\facebook-applinks-4.35.0.aar\6f9d643770740abe37464f508c696d96\AndroidManifest.xml:21:1-31:12
MERGED from [com.facebook.android:facebook-messenger:4.35.0] C:\Users\USER\.gradle\caches\transforms-1\files-1.1\facebook-messenger-4.35.0.aar\d737611ac3b97f241c533d6b58e96499\AndroidManifest.xml:21:1-31:12
MERGED from [com.facebook.android:facebook-marketing:4.35.0] C:\Users\USER\.gradle\caches\transforms-1\files-1.1\facebook-marketing-4.35.0.aar\a4a21d30d0ef15c2679df6fc5d7ec846\AndroidManifest.xml:21:1-35:12
MERGED from [com.facebook.android:facebook-core:4.35.0] C:\Users\USER\.gradle\caches\transforms-1\files-1.1\facebook-core-4.35.0.aar\98a1683320e19566903ab7a6cff867f3\AndroidManifest.xml:21:1-53:12
MERGED from [com.android.support:support-v4:27.0.2] C:\Users\USER\.gradle\caches\transforms-1\files-1.1\support-v4-27.0.2.aar\bd6e7c523e49c05693532452c962ad53\AndroidManifest.xml:17:1-22:12
MERGED from [com.android.support:appcompat-v7:27.0.2] C:\Users\USER\.gradle\caches\transforms-1\files-1.1\appcompat-v7-27.0.2.aar\d1f64775c2635c570d1ca53d14520f0d\AndroidManifest.xml:17:1-22:12
MERGED from [com.android.support:support-fragment:27.0.2] C:\Users\USER\.gradle\caches\transforms-1\files-1.1\support-fragment-27.0.2.aar\320f2972907194ad604fb07164295302\AndroidManifest.xml:17:1-22:12
MERGED from [com.android.support:support-core-utils:27.0.2] C:\Users\USER\.gradle\caches\transforms-1\files-1.1\support-core-utils-27.0.2.aar\5c3c33cb3df817731db5d2efe4264408\AndroidManifest.xml:17:1-22:12
MERGED from [com.android.support:cardview-v7:27.0.2] C:\Users\USER\.gradle\caches\transforms-1\files-1.1\cardview-v7-27.0.2.aar\042efc500565438d2779a5f657b726e2\AndroidManifest.xml:17:1-22:12
MERGED from [com.android.support:customtabs:27.0.2] C:\Users\USER\.gradle\caches\transforms-1\files-1.1\customtabs-27.0.2.aar\eb80ff9f49f4c618979a594e5020201b\AndroidManifest.xml:17:1-22:12
MERGED from [com.android.support:animated-vector-drawable:27.0.2] C:\Users\USER\.gradle\caches\transforms-1\files-1.1\animated-vector-drawable-27.0.2.aar\5dce17d260ac29e243b32473e2c00b9d\AndroidManifest.xml:17:1-22:12
MERGED from [com.android.support:support-vector-drawable:27.0.2] C:\Users\USER\.gradle\caches\transforms-1\files-1.1\support-vector-drawable-27.0.2.aar\f164a5416d30fab9078d42d57c310493\AndroidManifest.xml:17:1-22:12
MERGED from [com.android.support:support-core-ui:27.0.2] C:\Users\USER\.gradle\caches\transforms-1\files-1.1\support-core-ui-27.0.2.aar\c918ea4b848e5a664a8005cc0729c4fd\AndroidManifest.xml:17:1-22:12
MERGED from [com.android.support:support-media-compat:27.0.2] C:\Users\USER\.gradle\caches\transforms-1\files-1.1\support-media-compat-27.0.2.aar\f8e20760e643ccc1f0dc3b99a4486bca\AndroidManifest.xml:17:1-22:12
MERGED from [com.android.support:support-compat:27.0.2] C:\Users\USER\.gradle\caches\transforms-1\files-1.1\support-compat-27.0.2.aar\0202c0bf5e1022ed1c56c996b8cc4854\AndroidManifest.xml:17:1-22:12
MERGED from [android.arch.lifecycle:runtime:1.0.3] C:\Users\USER\.gradle\caches\transforms-1\files-1.1\runtime-1.0.3.aar\266fd3abe9a2d0469101224619f7ec95\AndroidManifest.xml:17:1-24:12
INJECTED from C:\Users\USER\Desktop\github\ezmath\platforms\android\app\src\main\AndroidManifest.xml:2:1-31:12
INJECTED from C:\Users\USER\Desktop\github\ezmath\platforms\android\app\src\main\AndroidManifest.xml:2:1-31:12
INJECTED from C:\Users\USER\Desktop\github\ezmath\platforms\android\app\src\main\AndroidManifest.xml:2:1-31:12
	package
		ADDED from C:\Users\USER\Desktop\github\ezmath\platforms\android\app\src\main\AndroidManifest.xml:2:98-125
		INJECTED from C:\Users\USER\Desktop\github\ezmath\platforms\android\app\src\main\AndroidManifest.xml
		INJECTED from C:\Users\USER\Desktop\github\ezmath\platforms\android\app\src\main\AndroidManifest.xml
	android:versionName
		ADDED from C:\Users\USER\Desktop\github\ezmath\platforms\android\app\src\main\AndroidManifest.xml:2:70-97
		INJECTED from C:\Users\USER\Desktop\github\ezmath\platforms\android\app\src\main\AndroidManifest.xml
		INJECTED from C:\Users\USER\Desktop\github\ezmath\platforms\android\app\src\main\AndroidManifest.xml
	android:hardwareAccelerated
		ADDED from C:\Users\USER\Desktop\github\ezmath\platforms\android\app\src\main\AndroidManifest.xml:2:11-45
	xmlns:android
		ADDED from C:\Users\USER\Desktop\github\ezmath\platforms\android\app\src\main\AndroidManifest.xml:2:126-184
	android:versionCode
		ADDED from C:\Users\USER\Desktop\github\ezmath\platforms\android\app\src\main\AndroidManifest.xml:2:46-69
		INJECTED from C:\Users\USER\Desktop\github\ezmath\platforms\android\app\src\main\AndroidManifest.xml
		INJECTED from C:\Users\USER\Desktop\github\ezmath\platforms\android\app\src\main\AndroidManifest.xml
supports-screens
ADDED from C:\Users\USER\Desktop\github\ezmath\platforms\android\app\src\main\AndroidManifest.xml:3:5-191
	android:largeScreens
		ADDED from C:\Users\USER\Desktop\github\ezmath\platforms\android\app\src\main\AndroidManifest.xml:3:49-76
	android:smallScreens
		ADDED from C:\Users\USER\Desktop\github\ezmath\platforms\android\app\src\main\AndroidManifest.xml:3:132-159
	android:normalScreens
		ADDED from C:\Users\USER\Desktop\github\ezmath\platforms\android\app\src\main\AndroidManifest.xml:3:77-105
	android:xlargeScreens
		ADDED from C:\Users\USER\Desktop\github\ezmath\platforms\android\app\src\main\AndroidManifest.xml:3:160-188
	android:resizeable
		ADDED from C:\Users\USER\Desktop\github\ezmath\platforms\android\app\src\main\AndroidManifest.xml:3:106-131
	android:anyDensity
		ADDED from C:\Users\USER\Desktop\github\ezmath\platforms\android\app\src\main\AndroidManifest.xml:3:23-48
uses-permission#android.permission.INTERNET
ADDED from C:\Users\USER\Desktop\github\ezmath\platforms\android\app\src\main\AndroidManifest.xml:4:5-67
MERGED from [com.google.firebase:firebase-crash:16.0.1] C:\Users\USER\.gradle\caches\transforms-1\files-1.1\firebase-crash-16.0.1.aar\344d9b1208de8b278ae6ece6714a2254\AndroidManifest.xml:22:5-67
MERGED from [com.google.firebase:firebase-crash:16.0.1] C:\Users\USER\.gradle\caches\transforms-1\files-1.1\firebase-crash-16.0.1.aar\344d9b1208de8b278ae6ece6714a2254\AndroidManifest.xml:22:5-67
MERGED from [com.google.firebase:firebase-perf:16.0.0] C:\Users\USER\.gradle\caches\transforms-1\files-1.1\firebase-perf-16.0.0.aar\18e2fa54227d928988f88181698bcebe\AndroidManifest.xml:22:5-67
MERGED from [com.google.firebase:firebase-perf:16.0.0] C:\Users\USER\.gradle\caches\transforms-1\files-1.1\firebase-perf-16.0.0.aar\18e2fa54227d928988f88181698bcebe\AndroidManifest.xml:22:5-67
MERGED from [com.google.firebase:firebase-measurement-connector-impl:16.0.1] C:\Users\USER\.gradle\caches\transforms-1\files-1.1\firebase-measurement-connector-impl-16.0.1.aar\c7ee6fb48c1881327a48a154f1c6411b\AndroidManifest.xml:22:5-67
MERGED from [com.google.firebase:firebase-measurement-connector-impl:16.0.1] C:\Users\USER\.gradle\caches\transforms-1\files-1.1\firebase-measurement-connector-impl-16.0.1.aar\c7ee6fb48c1881327a48a154f1c6411b\AndroidManifest.xml:22:5-67
MERGED from [com.google.android.gms:play-services-tagmanager-api:16.0.1] C:\Users\USER\.gradle\caches\transforms-1\files-1.1\play-services-tagmanager-api-16.0.1.aar\493547ac8c42459d031d3678916ccf00\AndroidManifest.xml:23:5-67
MERGED from [com.google.android.gms:play-services-tagmanager-api:16.0.1] C:\Users\USER\.gradle\caches\transforms-1\files-1.1\play-services-tagmanager-api-16.0.1.aar\493547ac8c42459d031d3678916ccf00\AndroidManifest.xml:23:5-67
MERGED from [com.google.firebase:firebase-analytics:16.0.1] C:\Users\USER\.gradle\caches\transforms-1\files-1.1\firebase-analytics-16.0.1.aar\c93e50037aac1cf5df075420ec8327ae\AndroidManifest.xml:23:5-67
MERGED from [com.google.firebase:firebase-analytics:16.0.1] C:\Users\USER\.gradle\caches\transforms-1\files-1.1\firebase-analytics-16.0.1.aar\c93e50037aac1cf5df075420ec8327ae\AndroidManifest.xml:23:5-67
MERGED from [com.google.firebase:firebase-analytics-impl:16.1.1] C:\Users\USER\.gradle\caches\transforms-1\files-1.1\firebase-analytics-impl-16.1.1.aar\1d1f5fabb2846d3880f6d051477de6d3\AndroidManifest.xml:23:5-67
MERGED from [com.google.firebase:firebase-analytics-impl:16.1.1] C:\Users\USER\.gradle\caches\transforms-1\files-1.1\firebase-analytics-impl-16.1.1.aar\1d1f5fabb2846d3880f6d051477de6d3\AndroidManifest.xml:23:5-67
MERGED from [com.google.firebase:firebase-iid:16.2.0] C:\Users\USER\.gradle\caches\transforms-1\files-1.1\firebase-iid-16.2.0.aar\8e3d19787330005bca9b125a79b78656\AndroidManifest.xml:23:5-67
MERGED from [com.google.firebase:firebase-iid:16.2.0] C:\Users\USER\.gradle\caches\transforms-1\files-1.1\firebase-iid-16.2.0.aar\8e3d19787330005bca9b125a79b78656\AndroidManifest.xml:23:5-67
MERGED from [com.google.android.gms:play-services-analytics-impl:16.0.1] C:\Users\USER\.gradle\caches\transforms-1\files-1.1\play-services-analytics-impl-16.0.1.aar\f56aee114d00e8ccd9a7faae9a0f7ef3\AndroidManifest.xml:23:5-67
MERGED from [com.google.android.gms:play-services-analytics-impl:16.0.1] C:\Users\USER\.gradle\caches\transforms-1\files-1.1\play-services-analytics-impl-16.0.1.aar\f56aee114d00e8ccd9a7faae9a0f7ef3\AndroidManifest.xml:23:5-67
	android:name
		ADDED from C:\Users\USER\Desktop\github\ezmath\platforms\android\app\src\main\AndroidManifest.xml:4:22-64
application
ADDED from C:\Users\USER\Desktop\github\ezmath\platforms\android\app\src\main\AndroidManifest.xml:5:5-27:19
MERGED from [com.google.firebase:firebase-crash:16.0.1] C:\Users\USER\.gradle\caches\transforms-1\files-1.1\firebase-crash-16.0.1.aar\344d9b1208de8b278ae6ece6714a2254\AndroidManifest.xml:24:5-25:19
MERGED from [com.google.firebase:firebase-crash:16.0.1] C:\Users\USER\.gradle\caches\transforms-1\files-1.1\firebase-crash-16.0.1.aar\344d9b1208de8b278ae6ece6714a2254\AndroidManifest.xml:24:5-25:19
MERGED from [com.google.firebase:firebase-auth:16.0.2] C:\Users\USER\.gradle\caches\transforms-1\files-1.1\firebase-auth-16.0.2.aar\c5f069bb0bb706f73076c582768ba6b8\AndroidManifest.xml:22:5-36:19
MERGED from [com.google.firebase:firebase-auth:16.0.2] C:\Users\USER\.gradle\caches\transforms-1\files-1.1\firebase-auth-16.0.2.aar\c5f069bb0bb706f73076c582768ba6b8\AndroidManifest.xml:22:5-36:19
MERGED from [com.facebook.android:facebook-android-sdk:4.35.0] C:\Users\USER\.gradle\caches\transforms-1\files-1.1\facebook-android-sdk-4.35.0.aar\0b35d2287ea6b026b70382b83e77badb\AndroidManifest.xml:28:5-29:19
MERGED from [com.facebook.android:facebook-android-sdk:4.35.0] C:\Users\USER\.gradle\caches\transforms-1\files-1.1\facebook-android-sdk-4.35.0.aar\0b35d2287ea6b026b70382b83e77badb\AndroidManifest.xml:28:5-29:19
MERGED from [com.google.firebase:firebase-core:16.0.1] C:\Users\USER\.gradle\caches\transforms-1\files-1.1\firebase-core-16.0.1.aar\a20808056a3d211b9ea0cca0b1060d46\AndroidManifest.xml:7:5-20
MERGED from [com.google.firebase:firebase-core:16.0.1] C:\Users\USER\.gradle\caches\transforms-1\files-1.1\firebase-core-16.0.1.aar\a20808056a3d211b9ea0cca0b1060d46\AndroidManifest.xml:7:5-20
MERGED from [com.google.firebase:firebase-messaging:17.1.0] C:\Users\USER\.gradle\caches\transforms-1\files-1.1\firebase-messaging-17.1.0.aar\e662ed27d96b874b70c0973d80ee9a08\AndroidManifest.xml:22:5-35:19
MERGED from [com.google.firebase:firebase-messaging:17.1.0] C:\Users\USER\.gradle\caches\transforms-1\files-1.1\firebase-messaging-17.1.0.aar\e662ed27d96b874b70c0973d80ee9a08\AndroidManifest.xml:22:5-35:19
MERGED from [com.google.firebase:firebase-config:16.0.0] C:\Users\USER\.gradle\caches\transforms-1\files-1.1\firebase-config-16.0.0.aar\a869d4f45f07c4e04380e11fafc398f4\AndroidManifest.xml:22:5-20
MERGED from [com.google.firebase:firebase-config:16.0.0] C:\Users\USER\.gradle\caches\transforms-1\files-1.1\firebase-config-16.0.0.aar\a869d4f45f07c4e04380e11fafc398f4\AndroidManifest.xml:22:5-20
MERGED from [com.google.firebase:firebase-perf:16.0.0] C:\Users\USER\.gradle\caches\transforms-1\files-1.1\firebase-perf-16.0.0.aar\18e2fa54227d928988f88181698bcebe\AndroidManifest.xml:27:5-39:19
MERGED from [com.google.firebase:firebase-perf:16.0.0] C:\Users\USER\.gradle\caches\transforms-1\files-1.1\firebase-perf-16.0.0.aar\18e2fa54227d928988f88181698bcebe\AndroidManifest.xml:27:5-39:19
MERGED from [com.google.firebase:firebase-auth-interop:16.0.0] C:\Users\USER\.gradle\caches\transforms-1\files-1.1\firebase-auth-interop-16.0.0.aar\a407dfcb082959cf99fb5eff7597bd97\AndroidManifest.xml:7:5-8:19
MERGED from [com.google.firebase:firebase-auth-interop:16.0.0] C:\Users\USER\.gradle\caches\transforms-1\files-1.1\firebase-auth-interop-16.0.0.aar\a407dfcb082959cf99fb5eff7597bd97\AndroidManifest.xml:7:5-8:19
MERGED from [com.google.firebase:firebase-measurement-connector-impl:16.0.1] C:\Users\USER\.gradle\caches\transforms-1\files-1.1\firebase-measurement-connector-impl-16.0.1.aar\c7ee6fb48c1881327a48a154f1c6411b\AndroidManifest.xml:26:5-32:19
MERGED from [com.google.firebase:firebase-measurement-connector-impl:16.0.1] C:\Users\USER\.gradle\caches\transforms-1\files-1.1\firebase-measurement-connector-impl-16.0.1.aar\c7ee6fb48c1881327a48a154f1c6411b\AndroidManifest.xml:26:5-32:19
MERGED from [com.google.android.gms:play-services-tagmanager-api:16.0.1] C:\Users\USER\.gradle\caches\transforms-1\files-1.1\play-services-tagmanager-api-16.0.1.aar\493547ac8c42459d031d3678916ccf00\AndroidManifest.xml:26:5-45:19
MERGED from [com.google.android.gms:play-services-tagmanager-api:16.0.1] C:\Users\USER\.gradle\caches\transforms-1\files-1.1\play-services-tagmanager-api-16.0.1.aar\493547ac8c42459d031d3678916ccf00\AndroidManifest.xml:26:5-45:19
MERGED from [com.google.firebase:firebase-analytics:16.0.1] C:\Users\USER\.gradle\caches\transforms-1\files-1.1\firebase-analytics-16.0.1.aar\c93e50037aac1cf5df075420ec8327ae\AndroidManifest.xml:28:5-53:19
MERGED from [com.google.firebase:firebase-analytics:16.0.1] C:\Users\USER\.gradle\caches\transforms-1\files-1.1\firebase-analytics-16.0.1.aar\c93e50037aac1cf5df075420ec8327ae\AndroidManifest.xml:28:5-53:19
MERGED from [com.google.firebase:firebase-analytics-impl:16.1.1] C:\Users\USER\.gradle\caches\transforms-1\files-1.1\firebase-analytics-impl-16.1.1.aar\1d1f5fabb2846d3880f6d051477de6d3\AndroidManifest.xml:28:5-38:19
MERGED from [com.google.firebase:firebase-analytics-impl:16.1.1] C:\Users\USER\.gradle\caches\transforms-1\files-1.1\firebase-analytics-impl-16.1.1.aar\1d1f5fabb2846d3880f6d051477de6d3\AndroidManifest.xml:28:5-38:19
MERGED from [com.google.firebase:firebase-iid:16.2.0] C:\Users\USER\.gradle\caches\transforms-1\files-1.1\firebase-iid-16.2.0.aar\8e3d19787330005bca9b125a79b78656\AndroidManifest.xml:34:5-63:19
MERGED from [com.google.firebase:firebase-iid:16.2.0] C:\Users\USER\.gradle\caches\transforms-1\files-1.1\firebase-iid-16.2.0.aar\8e3d19787330005bca9b125a79b78656\AndroidManifest.xml:34:5-63:19
MERGED from [com.google.firebase:firebase-common:16.0.0] C:\Users\USER\.gradle\caches\transforms-1\files-1.1\firebase-common-16.0.0.aar\50314bcaae893f5122d119c7fbdcc949\AndroidManifest.xml:8:5-14:19
MERGED from [com.google.firebase:firebase-common:16.0.0] C:\Users\USER\.gradle\caches\transforms-1\files-1.1\firebase-common-16.0.0.aar\50314bcaae893f5122d119c7fbdcc949\AndroidManifest.xml:8:5-14:19
MERGED from [com.google.android.gms:play-services-analytics-impl:16.0.1] C:\Users\USER\.gradle\caches\transforms-1\files-1.1\play-services-analytics-impl-16.0.1.aar\f56aee114d00e8ccd9a7faae9a0f7ef3\AndroidManifest.xml:29:5-20
MERGED from [com.google.android.gms:play-services-analytics-impl:16.0.1] C:\Users\USER\.gradle\caches\transforms-1\files-1.1\play-services-analytics-impl-16.0.1.aar\f56aee114d00e8ccd9a7faae9a0f7ef3\AndroidManifest.xml:29:5-20
MERGED from [com.google.android.gms:play-services-clearcut:15.0.1] C:\Users\USER\.gradle\caches\transforms-1\files-1.1\play-services-clearcut-15.0.1.aar\ffe89055ef584b75176adff760815493\AndroidManifest.xml:22:5-20
MERGED from [com.google.android.gms:play-services-clearcut:15.0.1] C:\Users\USER\.gradle\caches\transforms-1\files-1.1\play-services-clearcut-15.0.1.aar\ffe89055ef584b75176adff760815493\AndroidManifest.xml:22:5-20
MERGED from [com.google.android.gms:play-services-phenotype:15.0.1] C:\Users\USER\.gradle\caches\transforms-1\files-1.1\play-services-phenotype-15.0.1.aar\1a158f1c58875f3003a65672ce5102b6\AndroidManifest.xml:22:5-20
MERGED from [com.google.android.gms:play-services-phenotype:15.0.1] C:\Users\USER\.gradle\caches\transforms-1\files-1.1\play-services-phenotype-15.0.1.aar\1a158f1c58875f3003a65672ce5102b6\AndroidManifest.xml:22:5-20
MERGED from [com.google.firebase:firebase-iid-interop:16.0.0] C:\Users\USER\.gradle\caches\transforms-1\files-1.1\firebase-iid-interop-16.0.0.aar\dce2477d994cbc8709bfaf62767e9665\AndroidManifest.xml:7:5-8:19
MERGED from [com.google.firebase:firebase-iid-interop:16.0.0] C:\Users\USER\.gradle\caches\transforms-1\files-1.1\firebase-iid-interop-16.0.0.aar\dce2477d994cbc8709bfaf62767e9665\AndroidManifest.xml:7:5-8:19
MERGED from [com.google.android.gms:play-services-base:15.0.1] C:\Users\USER\.gradle\caches\transforms-1\files-1.1\play-services-base-15.0.1.aar\436b01fa1908655fa9a35019e5ea6e20\AndroidManifest.xml:22:5-27:19
MERGED from [com.google.android.gms:play-services-base:15.0.1] C:\Users\USER\.gradle\caches\transforms-1\files-1.1\play-services-base-15.0.1.aar\436b01fa1908655fa9a35019e5ea6e20\AndroidManifest.xml:22:5-27:19
MERGED from [com.google.android.gms:play-services-tasks:15.0.1] C:\Users\USER\.gradle\caches\transforms-1\files-1.1\play-services-tasks-15.0.1.aar\6f9977fca89af71fa125ed693f69ea9e\AndroidManifest.xml:7:5-20
MERGED from [com.google.android.gms:play-services-tasks:15.0.1] C:\Users\USER\.gradle\caches\transforms-1\files-1.1\play-services-tasks-15.0.1.aar\6f9977fca89af71fa125ed693f69ea9e\AndroidManifest.xml:7:5-20
MERGED from [com.google.android.gms:play-services-ads-identifier:15.0.1] C:\Users\USER\.gradle\caches\transforms-1\files-1.1\play-services-ads-identifier-15.0.1.aar\0dd7d8f982ba3c2bebcae82adc5f443d\AndroidManifest.xml:22:5-20
MERGED from [com.google.android.gms:play-services-ads-identifier:15.0.1] C:\Users\USER\.gradle\caches\transforms-1\files-1.1\play-services-ads-identifier-15.0.1.aar\0dd7d8f982ba3c2bebcae82adc5f443d\AndroidManifest.xml:22:5-20
MERGED from [com.google.android.gms:play-services-stats:15.0.1] C:\Users\USER\.gradle\caches\transforms-1\files-1.1\play-services-stats-15.0.1.aar\b183550fd8a37a142e4a9db851be1feb\AndroidManifest.xml:7:5-20
MERGED from [com.google.android.gms:play-services-stats:15.0.1] C:\Users\USER\.gradle\caches\transforms-1\files-1.1\play-services-stats-15.0.1.aar\b183550fd8a37a142e4a9db851be1feb\AndroidManifest.xml:7:5-20
MERGED from [com.google.firebase:firebase-measurement-connector:16.0.0] C:\Users\USER\.gradle\caches\transforms-1\files-1.1\firebase-measurement-connector-16.0.0.aar\cb465ec6d908f6a48d698f62993ad548\AndroidManifest.xml:22:5-23:19
MERGED from [com.google.firebase:firebase-measurement-connector:16.0.0] C:\Users\USER\.gradle\caches\transforms-1\files-1.1\firebase-measurement-connector-16.0.0.aar\cb465ec6d908f6a48d698f62993ad548\AndroidManifest.xml:22:5-23:19
MERGED from [com.google.android.gms:play-services-basement:15.0.1] C:\Users\USER\.gradle\caches\transforms-1\files-1.1\play-services-basement-15.0.1.aar\bb926056b08e5fcb7dda06c84676af3e\AndroidManifest.xml:22:5-26:19
MERGED from [com.google.android.gms:play-services-basement:15.0.1] C:\Users\USER\.gradle\caches\transforms-1\files-1.1\play-services-basement-15.0.1.aar\bb926056b08e5fcb7dda06c84676af3e\AndroidManifest.xml:22:5-26:19
MERGED from [com.google.android.gms:play-services-measurement-base:16.0.0] C:\Users\USER\.gradle\caches\transforms-1\files-1.1\play-services-measurement-base-16.0.0.aar\4e7615b876d056b079655a9fb0eea329\AndroidManifest.xml:22:5-20
MERGED from [com.google.android.gms:play-services-measurement-base:16.0.0] C:\Users\USER\.gradle\caches\transforms-1\files-1.1\play-services-measurement-base-16.0.0.aar\4e7615b876d056b079655a9fb0eea329\AndroidManifest.xml:22:5-20
MERGED from [com.facebook.android:facebook-login:4.35.0] C:\Users\USER\.gradle\caches\transforms-1\files-1.1\facebook-login-4.35.0.aar\4e168e19a6f5280f92cca718889bea83\AndroidManifest.xml:28:5-29:19
MERGED from [com.facebook.android:facebook-login:4.35.0] C:\Users\USER\.gradle\caches\transforms-1\files-1.1\facebook-login-4.35.0.aar\4e168e19a6f5280f92cca718889bea83\AndroidManifest.xml:28:5-29:19
MERGED from [com.facebook.android:facebook-share:4.35.0] C:\Users\USER\.gradle\caches\transforms-1\files-1.1\facebook-share-4.35.0.aar\1d61b3cc2ce27863c5331ad9fa8752bb\AndroidManifest.xml:28:5-29:19
MERGED from [com.facebook.android:facebook-share:4.35.0] C:\Users\USER\.gradle\caches\transforms-1\files-1.1\facebook-share-4.35.0.aar\1d61b3cc2ce27863c5331ad9fa8752bb\AndroidManifest.xml:28:5-29:19
MERGED from [com.facebook.android:facebook-common:4.35.0] C:\Users\USER\.gradle\caches\transforms-1\files-1.1\facebook-common-4.35.0.aar\22b30b68eac818cfa009782448bb4405\AndroidManifest.xml:28:5-35:19
MERGED from [com.facebook.android:facebook-common:4.35.0] C:\Users\USER\.gradle\caches\transforms-1\files-1.1\facebook-common-4.35.0.aar\22b30b68eac818cfa009782448bb4405\AndroidManifest.xml:28:5-35:19
MERGED from [com.facebook.android:facebook-places:4.35.0] C:\Users\USER\.gradle\caches\transforms-1\files-1.1\facebook-places-4.35.0.aar\9392908c9f4ee28a0bfc77da94775a46\AndroidManifest.xml:28:5-29:19
MERGED from [com.facebook.android:facebook-places:4.35.0] C:\Users\USER\.gradle\caches\transforms-1\files-1.1\facebook-places-4.35.0.aar\9392908c9f4ee28a0bfc77da94775a46\AndroidManifest.xml:28:5-29:19
MERGED from [com.facebook.android:facebook-applinks:4.35.0] C:\Users\USER\.gradle\caches\transforms-1\files-1.1\facebook-applinks-4.35.0.aar\6f9d643770740abe37464f508c696d96\AndroidManifest.xml:28:5-29:19
MERGED from [com.facebook.android:facebook-applinks:4.35.0] C:\Users\USER\.gradle\caches\transforms-1\files-1.1\facebook-applinks-4.35.0.aar\6f9d643770740abe37464f508c696d96\AndroidManifest.xml:28:5-29:19
MERGED from [com.facebook.android:facebook-messenger:4.35.0] C:\Users\USER\.gradle\caches\transforms-1\files-1.1\facebook-messenger-4.35.0.aar\d737611ac3b97f241c533d6b58e96499\AndroidManifest.xml:28:5-29:19
MERGED from [com.facebook.android:facebook-messenger:4.35.0] C:\Users\USER\.gradle\caches\transforms-1\files-1.1\facebook-messenger-4.35.0.aar\d737611ac3b97f241c533d6b58e96499\AndroidManifest.xml:28:5-29:19
MERGED from [com.facebook.android:facebook-marketing:4.35.0] C:\Users\USER\.gradle\caches\transforms-1\files-1.1\facebook-marketing-4.35.0.aar\a4a21d30d0ef15c2679df6fc5d7ec846\AndroidManifest.xml:28:5-33:19
MERGED from [com.facebook.android:facebook-marketing:4.35.0] C:\Users\USER\.gradle\caches\transforms-1\files-1.1\facebook-marketing-4.35.0.aar\a4a21d30d0ef15c2679df6fc5d7ec846\AndroidManifest.xml:28:5-33:19
MERGED from [com.facebook.android:facebook-core:4.35.0] C:\Users\USER\.gradle\caches\transforms-1\files-1.1\facebook-core-4.35.0.aar\98a1683320e19566903ab7a6cff867f3\AndroidManifest.xml:28:5-51:19
MERGED from [com.facebook.android:facebook-core:4.35.0] C:\Users\USER\.gradle\caches\transforms-1\files-1.1\facebook-core-4.35.0.aar\98a1683320e19566903ab7a6cff867f3\AndroidManifest.xml:28:5-51:19
	android:supportsRtl
		ADDED from C:\Users\USER\Desktop\github\ezmath\platforms\android\app\src\main\AndroidManifest.xml:5:114-140
	android:label
		ADDED from C:\Users\USER\Desktop\github\ezmath\platforms\android\app\src\main\AndroidManifest.xml:5:81-113
	android:hardwareAccelerated
		ADDED from C:\Users\USER\Desktop\github\ezmath\platforms\android\app\src\main\AndroidManifest.xml:5:18-52
	android:icon
		ADDED from C:\Users\USER\Desktop\github\ezmath\platforms\android\app\src\main\AndroidManifest.xml:5:53-80
activity#com.tapper.ezmath.MainActivity
ADDED from C:\Users\USER\Desktop\github\ezmath\platforms\android\app\src\main\AndroidManifest.xml:6:9-11:20
	android:label
		ADDED from C:\Users\USER\Desktop\github\ezmath\platforms\android\app\src\main\AndroidManifest.xml:6:97-134
	android:launchMode
		ADDED from C:\Users\USER\Desktop\github\ezmath\platforms\android\app\src\main\AndroidManifest.xml:6:135-165
	android:windowSoftInputMode
		ADDED from C:\Users\USER\Desktop\github\ezmath\platforms\android\app\src\main\AndroidManifest.xml:6:257-299
	android:configChanges
		ADDED from C:\Users\USER\Desktop\github\ezmath\platforms\android\app\src\main\AndroidManifest.xml:6:19-96
	android:theme
		ADDED from C:\Users\USER\Desktop\github\ezmath\platforms\android\app\src\main\AndroidManifest.xml:6:194-256
	android:name
		ADDED from C:\Users\USER\Desktop\github\ezmath\platforms\android\app\src\main\AndroidManifest.xml:6:166-193
intent-filter#android.intent.action.MAIN+android.intent.category.LAUNCHER
ADDED from C:\Users\USER\Desktop\github\ezmath\platforms\android\app\src\main\AndroidManifest.xml:7:13-10:29
	android:label
		ADDED from C:\Users\USER\Desktop\github\ezmath\platforms\android\app\src\main\AndroidManifest.xml:7:28-65
action#android.intent.action.MAIN
ADDED from C:\Users\USER\Desktop\github\ezmath\platforms\android\app\src\main\AndroidManifest.xml:8:17-69
	android:name
		ADDED from C:\Users\USER\Desktop\github\ezmath\platforms\android\app\src\main\AndroidManifest.xml:8:25-66
category#android.intent.category.LAUNCHER
ADDED from C:\Users\USER\Desktop\github\ezmath\platforms\android\app\src\main\AndroidManifest.xml:9:17-77
	android:name
		ADDED from C:\Users\USER\Desktop\github\ezmath\platforms\android\app\src\main\AndroidManifest.xml:9:27-74
meta-data#com.facebook.sdk.ApplicationId
ADDED from C:\Users\USER\Desktop\github\ezmath\platforms\android\app\src\main\AndroidManifest.xml:12:9-102
	android:value
		ADDED from C:\Users\USER\Desktop\github\ezmath\platforms\android\app\src\main\AndroidManifest.xml:12:66-99
	android:name
		ADDED from C:\Users\USER\Desktop\github\ezmath\platforms\android\app\src\main\AndroidManifest.xml:12:20-65
meta-data#com.facebook.sdk.ApplicationName
ADDED from C:\Users\USER\Desktop\github\ezmath\platforms\android\app\src\main\AndroidManifest.xml:13:9-106
	android:value
		ADDED from C:\Users\USER\Desktop\github\ezmath\platforms\android\app\src\main\AndroidManifest.xml:13:68-103
	android:name
		ADDED from C:\Users\USER\Desktop\github\ezmath\platforms\android\app\src\main\AndroidManifest.xml:13:20-67
activity#com.facebook.FacebookActivity
ADDED from C:\Users\USER\Desktop\github\ezmath\platforms\android\app\src\main\AndroidManifest.xml:14:9-186
MERGED from [com.facebook.android:facebook-common:4.35.0] C:\Users\USER\.gradle\caches\transforms-1\files-1.1\facebook-common-4.35.0.aar\22b30b68eac818cfa009782448bb4405\AndroidManifest.xml:29:9-32:66
MERGED from [com.facebook.android:facebook-common:4.35.0] C:\Users\USER\.gradle\caches\transforms-1\files-1.1\facebook-common-4.35.0.aar\22b30b68eac818cfa009782448bb4405\AndroidManifest.xml:29:9-32:66
	android:label
		ADDED from C:\Users\USER\Desktop\github\ezmath\platforms\android\app\src\main\AndroidManifest.xml:14:103-138
	android:configChanges
		ADDED from C:\Users\USER\Desktop\github\ezmath\platforms\android\app\src\main\AndroidManifest.xml:14:19-102
	android:theme
		ADDED from [com.facebook.android:facebook-common:4.35.0] C:\Users\USER\.gradle\caches\transforms-1\files-1.1\facebook-common-4.35.0.aar\22b30b68eac818cfa009782448bb4405\AndroidManifest.xml:32:13-63
	android:name
		ADDED from C:\Users\USER\Desktop\github\ezmath\platforms\android\app\src\main\AndroidManifest.xml:14:139-183
service#com.google.android.gms.measurement.AppMeasurementService
ADDED from C:\Users\USER\Desktop\github\ezmath\platforms\android\app\src\main\AndroidManifest.xml:15:9-140
MERGED from [com.google.firebase:firebase-analytics:16.0.1] C:\Users\USER\.gradle\caches\transforms-1\files-1.1\firebase-analytics-16.0.1.aar\c93e50037aac1cf5df075420ec8327ae\AndroidManifest.xml:44:9-47:40
MERGED from [com.google.firebase:firebase-analytics:16.0.1] C:\Users\USER\.gradle\caches\transforms-1\files-1.1\firebase-analytics-16.0.1.aar\c93e50037aac1cf5df075420ec8327ae\AndroidManifest.xml:44:9-47:40
	android:enabled
		ADDED from C:\Users\USER\Desktop\github\ezmath\platforms\android\app\src\main\AndroidManifest.xml:15:18-40
	android:exported
		ADDED from C:\Users\USER\Desktop\github\ezmath\platforms\android\app\src\main\AndroidManifest.xml:15:41-65
	android:name
		ADDED from C:\Users\USER\Desktop\github\ezmath\platforms\android\app\src\main\AndroidManifest.xml:15:66-137
service#org.apache.cordova.firebase.FirebasePluginMessagingService
ADDED from C:\Users\USER\Desktop\github\ezmath\platforms\android\app\src\main\AndroidManifest.xml:16:9-20:19
	android:name
		ADDED from C:\Users\USER\Desktop\github\ezmath\platforms\android\app\src\main\AndroidManifest.xml:16:18-91
intent-filter#com.google.firebase.MESSAGING_EVENT
ADDED from C:\Users\USER\Desktop\github\ezmath\platforms\android\app\src\main\AndroidManifest.xml:17:13-19:29
action#com.google.firebase.MESSAGING_EVENT
ADDED from C:\Users\USER\Desktop\github\ezmath\platforms\android\app\src\main\AndroidManifest.xml:18:17-78
	android:name
		ADDED from C:\Users\USER\Desktop\github\ezmath\platforms\android\app\src\main\AndroidManifest.xml:18:25-75
service#org.apache.cordova.firebase.FirebasePluginInstanceIDService
ADDED from C:\Users\USER\Desktop\github\ezmath\platforms\android\app\src\main\AndroidManifest.xml:21:9-25:19
	android:name
		ADDED from C:\Users\USER\Desktop\github\ezmath\platforms\android\app\src\main\AndroidManifest.xml:21:18-92
intent-filter#com.google.firebase.INSTANCE_ID_EVENT
ADDED from C:\Users\USER\Desktop\github\ezmath\platforms\android\app\src\main\AndroidManifest.xml:22:13-24:29
action#com.google.firebase.INSTANCE_ID_EVENT
ADDED from C:\Users\USER\Desktop\github\ezmath\platforms\android\app\src\main\AndroidManifest.xml:23:17-80
	android:name
		ADDED from C:\Users\USER\Desktop\github\ezmath\platforms\android\app\src\main\AndroidManifest.xml:23:25-77
receiver#org.apache.cordova.firebase.OnNotificationOpenReceiver
ADDED from C:\Users\USER\Desktop\github\ezmath\platforms\android\app\src\main\AndroidManifest.xml:26:9-91
	android:name
		ADDED from C:\Users\USER\Desktop\github\ezmath\platforms\android\app\src\main\AndroidManifest.xml:26:19-88
uses-sdk
ADDED from C:\Users\USER\Desktop\github\ezmath\platforms\android\app\src\main\AndroidManifest.xml:28:5-74
MERGED from [me.leolin:ShortcutBadger:1.1.4] C:\Users\USER\.gradle\caches\transforms-1\files-1.1\ShortcutBadger-1.1.4.aar\9a2db3d288cc06b1564d5ffbbe91129a\AndroidManifest.xml:7:5-9:41
MERGED from [me.leolin:ShortcutBadger:1.1.4] C:\Users\USER\.gradle\caches\transforms-1\files-1.1\ShortcutBadger-1.1.4.aar\9a2db3d288cc06b1564d5ffbbe91129a\AndroidManifest.xml:7:5-9:41
MERGED from [com.google.firebase:firebase-crash:16.0.1] C:\Users\USER\.gradle\caches\transforms-1\files-1.1\firebase-crash-16.0.1.aar\344d9b1208de8b278ae6ece6714a2254\AndroidManifest.xml:20:5-44
MERGED from [com.google.firebase:firebase-crash:16.0.1] C:\Users\USER\.gradle\caches\transforms-1\files-1.1\firebase-crash-16.0.1.aar\344d9b1208de8b278ae6ece6714a2254\AndroidManifest.xml:20:5-44
MERGED from [com.google.firebase:firebase-auth:16.0.2] C:\Users\USER\.gradle\caches\transforms-1\files-1.1\firebase-auth-16.0.2.aar\c5f069bb0bb706f73076c582768ba6b8\AndroidManifest.xml:20:5-44
MERGED from [com.google.firebase:firebase-auth:16.0.2] C:\Users\USER\.gradle\caches\transforms-1\files-1.1\firebase-auth-16.0.2.aar\c5f069bb0bb706f73076c582768ba6b8\AndroidManifest.xml:20:5-44
MERGED from [com.facebook.android:facebook-android-sdk:4.35.0] C:\Users\USER\.gradle\caches\transforms-1\files-1.1\facebook-android-sdk-4.35.0.aar\0b35d2287ea6b026b70382b83e77badb\AndroidManifest.xml:24:5-26:41
MERGED from [com.facebook.android:facebook-android-sdk:4.35.0] C:\Users\USER\.gradle\caches\transforms-1\files-1.1\facebook-android-sdk-4.35.0.aar\0b35d2287ea6b026b70382b83e77badb\AndroidManifest.xml:24:5-26:41
MERGED from [com.google.android.gms:play-services-tagmanager:16.0.1] C:\Users\USER\.gradle\caches\transforms-1\files-1.1\play-services-tagmanager-16.0.1.aar\d7b361b7d23ddb91c5858e55e3897aeb\AndroidManifest.xml:20:5-44
MERGED from [com.google.android.gms:play-services-tagmanager:16.0.1] C:\Users\USER\.gradle\caches\transforms-1\files-1.1\play-services-tagmanager-16.0.1.aar\d7b361b7d23ddb91c5858e55e3897aeb\AndroidManifest.xml:20:5-44
MERGED from [com.google.firebase:firebase-core:16.0.1] C:\Users\USER\.gradle\caches\transforms-1\files-1.1\firebase-core-16.0.1.aar\a20808056a3d211b9ea0cca0b1060d46\AndroidManifest.xml:5:5-44
MERGED from [com.google.firebase:firebase-core:16.0.1] C:\Users\USER\.gradle\caches\transforms-1\files-1.1\firebase-core-16.0.1.aar\a20808056a3d211b9ea0cca0b1060d46\AndroidManifest.xml:5:5-44
MERGED from [com.google.firebase:firebase-messaging:17.1.0] C:\Users\USER\.gradle\caches\transforms-1\files-1.1\firebase-messaging-17.1.0.aar\e662ed27d96b874b70c0973d80ee9a08\AndroidManifest.xml:20:5-44
MERGED from [com.google.firebase:firebase-messaging:17.1.0] C:\Users\USER\.gradle\caches\transforms-1\files-1.1\firebase-messaging-17.1.0.aar\e662ed27d96b874b70c0973d80ee9a08\AndroidManifest.xml:20:5-44
MERGED from [com.google.firebase:firebase-config:16.0.0] C:\Users\USER\.gradle\caches\transforms-1\files-1.1\firebase-config-16.0.0.aar\a869d4f45f07c4e04380e11fafc398f4\AndroidManifest.xml:20:5-44
MERGED from [com.google.firebase:firebase-config:16.0.0] C:\Users\USER\.gradle\caches\transforms-1\files-1.1\firebase-config-16.0.0.aar\a869d4f45f07c4e04380e11fafc398f4\AndroidManifest.xml:20:5-44
MERGED from [com.google.firebase:firebase-perf:16.0.0] C:\Users\USER\.gradle\caches\transforms-1\files-1.1\firebase-perf-16.0.0.aar\18e2fa54227d928988f88181698bcebe\AndroidManifest.xml:20:5-44
MERGED from [com.google.firebase:firebase-perf:16.0.0] C:\Users\USER\.gradle\caches\transforms-1\files-1.1\firebase-perf-16.0.0.aar\18e2fa54227d928988f88181698bcebe\AndroidManifest.xml:20:5-44
MERGED from [:CordovaLib] C:\Users\USER\Desktop\github\ezmath\platforms\android\CordovaLib\build\intermediates\manifests\full\debug\AndroidManifest.xml:25:5-44
MERGED from [:CordovaLib] C:\Users\USER\Desktop\github\ezmath\platforms\android\CordovaLib\build\intermediates\manifests\full\debug\AndroidManifest.xml:25:5-44
MERGED from [com.google.android.gms:play-services-flags:15.0.1] C:\Users\USER\.gradle\caches\transforms-1\files-1.1\play-services-flags-15.0.1.aar\01b69edc7aa18d3a9fc563c9010590d0\AndroidManifest.xml:20:5-44
MERGED from [com.google.android.gms:play-services-flags:15.0.1] C:\Users\USER\.gradle\caches\transforms-1\files-1.1\play-services-flags-15.0.1.aar\01b69edc7aa18d3a9fc563c9010590d0\AndroidManifest.xml:20:5-44
MERGED from [com.google.firebase:firebase-auth-interop:16.0.0] C:\Users\USER\.gradle\caches\transforms-1\files-1.1\firebase-auth-interop-16.0.0.aar\a407dfcb082959cf99fb5eff7597bd97\AndroidManifest.xml:5:5-44
MERGED from [com.google.firebase:firebase-auth-interop:16.0.0] C:\Users\USER\.gradle\caches\transforms-1\files-1.1\firebase-auth-interop-16.0.0.aar\a407dfcb082959cf99fb5eff7597bd97\AndroidManifest.xml:5:5-44
MERGED from [com.google.firebase:firebase-measurement-connector-impl:16.0.1] C:\Users\USER\.gradle\caches\transforms-1\files-1.1\firebase-measurement-connector-impl-16.0.1.aar\c7ee6fb48c1881327a48a154f1c6411b\AndroidManifest.xml:20:5-44
MERGED from [com.google.firebase:firebase-measurement-connector-impl:16.0.1] C:\Users\USER\.gradle\caches\transforms-1\files-1.1\firebase-measurement-connector-impl-16.0.1.aar\c7ee6fb48c1881327a48a154f1c6411b\AndroidManifest.xml:20:5-44
MERGED from [com.google.firebase:firebase-abt:16.0.0] C:\Users\USER\.gradle\caches\transforms-1\files-1.1\firebase-abt-16.0.0.aar\9512f3b833f403f61936df0be865b0c9\AndroidManifest.xml:5:5-44
MERGED from [com.google.firebase:firebase-abt:16.0.0] C:\Users\USER\.gradle\caches\transforms-1\files-1.1\firebase-abt-16.0.0.aar\9512f3b833f403f61936df0be865b0c9\AndroidManifest.xml:5:5-44
MERGED from [com.google.android.gms:play-services-tagmanager-api:16.0.1] C:\Users\USER\.gradle\caches\transforms-1\files-1.1\play-services-tagmanager-api-16.0.1.aar\493547ac8c42459d031d3678916ccf00\AndroidManifest.xml:20:5-44
MERGED from [com.google.android.gms:play-services-tagmanager-api:16.0.1] C:\Users\USER\.gradle\caches\transforms-1\files-1.1\play-services-tagmanager-api-16.0.1.aar\493547ac8c42459d031d3678916ccf00\AndroidManifest.xml:20:5-44
MERGED from [com.google.firebase:firebase-analytics:16.0.1] C:\Users\USER\.gradle\caches\transforms-1\files-1.1\firebase-analytics-16.0.1.aar\c93e50037aac1cf5df075420ec8327ae\AndroidManifest.xml:20:5-44
MERGED from [com.google.firebase:firebase-analytics:16.0.1] C:\Users\USER\.gradle\caches\transforms-1\files-1.1\firebase-analytics-16.0.1.aar\c93e50037aac1cf5df075420ec8327ae\AndroidManifest.xml:20:5-44
MERGED from [com.google.firebase:firebase-analytics-impl:16.1.1] C:\Users\USER\.gradle\caches\transforms-1\files-1.1\firebase-analytics-impl-16.1.1.aar\1d1f5fabb2846d3880f6d051477de6d3\AndroidManifest.xml:20:5-44
MERGED from [com.google.firebase:firebase-analytics-impl:16.1.1] C:\Users\USER\.gradle\caches\transforms-1\files-1.1\firebase-analytics-impl-16.1.1.aar\1d1f5fabb2846d3880f6d051477de6d3\AndroidManifest.xml:20:5-44
MERGED from [com.google.firebase:firebase-iid:16.2.0] C:\Users\USER\.gradle\caches\transforms-1\files-1.1\firebase-iid-16.2.0.aar\8e3d19787330005bca9b125a79b78656\AndroidManifest.xml:20:5-44
MERGED from [com.google.firebase:firebase-iid:16.2.0] C:\Users\USER\.gradle\caches\transforms-1\files-1.1\firebase-iid-16.2.0.aar\8e3d19787330005bca9b125a79b78656\AndroidManifest.xml:20:5-44
MERGED from [com.google.firebase:firebase-common:16.0.0] C:\Users\USER\.gradle\caches\transforms-1\files-1.1\firebase-common-16.0.0.aar\50314bcaae893f5122d119c7fbdcc949\AndroidManifest.xml:5:5-6:37
MERGED from [com.google.firebase:firebase-common:16.0.0] C:\Users\USER\.gradle\caches\transforms-1\files-1.1\firebase-common-16.0.0.aar\50314bcaae893f5122d119c7fbdcc949\AndroidManifest.xml:5:5-6:37
MERGED from [com.google.android.gms:play-services-analytics-impl:16.0.1] C:\Users\USER\.gradle\caches\transforms-1\files-1.1\play-services-analytics-impl-16.0.1.aar\f56aee114d00e8ccd9a7faae9a0f7ef3\AndroidManifest.xml:20:5-44
MERGED from [com.google.android.gms:play-services-analytics-impl:16.0.1] C:\Users\USER\.gradle\caches\transforms-1\files-1.1\play-services-analytics-impl-16.0.1.aar\f56aee114d00e8ccd9a7faae9a0f7ef3\AndroidManifest.xml:20:5-44
MERGED from [com.google.android.gms:play-services-clearcut:15.0.1] C:\Users\USER\.gradle\caches\transforms-1\files-1.1\play-services-clearcut-15.0.1.aar\ffe89055ef584b75176adff760815493\AndroidManifest.xml:20:5-44
MERGED from [com.google.android.gms:play-services-clearcut:15.0.1] C:\Users\USER\.gradle\caches\transforms-1\files-1.1\play-services-clearcut-15.0.1.aar\ffe89055ef584b75176adff760815493\AndroidManifest.xml:20:5-44
MERGED from [com.google.android.gms:play-services-phenotype:15.0.1] C:\Users\USER\.gradle\caches\transforms-1\files-1.1\play-services-phenotype-15.0.1.aar\1a158f1c58875f3003a65672ce5102b6\AndroidManifest.xml:20:5-44
MERGED from [com.google.android.gms:play-services-phenotype:15.0.1] C:\Users\USER\.gradle\caches\transforms-1\files-1.1\play-services-phenotype-15.0.1.aar\1a158f1c58875f3003a65672ce5102b6\AndroidManifest.xml:20:5-44
MERGED from [com.google.firebase:firebase-iid-interop:16.0.0] C:\Users\USER\.gradle\caches\transforms-1\files-1.1\firebase-iid-interop-16.0.0.aar\dce2477d994cbc8709bfaf62767e9665\AndroidManifest.xml:5:5-44
MERGED from [com.google.firebase:firebase-iid-interop:16.0.0] C:\Users\USER\.gradle\caches\transforms-1\files-1.1\firebase-iid-interop-16.0.0.aar\dce2477d994cbc8709bfaf62767e9665\AndroidManifest.xml:5:5-44
MERGED from [com.google.android.gms:play-services-base:15.0.1] C:\Users\USER\.gradle\caches\transforms-1\files-1.1\play-services-base-15.0.1.aar\436b01fa1908655fa9a35019e5ea6e20\AndroidManifest.xml:20:5-44
MERGED from [com.google.android.gms:play-services-base:15.0.1] C:\Users\USER\.gradle\caches\transforms-1\files-1.1\play-services-base-15.0.1.aar\436b01fa1908655fa9a35019e5ea6e20\AndroidManifest.xml:20:5-44
MERGED from [com.google.android.gms:play-services-tasks:15.0.1] C:\Users\USER\.gradle\caches\transforms-1\files-1.1\play-services-tasks-15.0.1.aar\6f9977fca89af71fa125ed693f69ea9e\AndroidManifest.xml:5:5-44
MERGED from [com.google.android.gms:play-services-tasks:15.0.1] C:\Users\USER\.gradle\caches\transforms-1\files-1.1\play-services-tasks-15.0.1.aar\6f9977fca89af71fa125ed693f69ea9e\AndroidManifest.xml:5:5-44
MERGED from [com.google.android.gms:play-services-ads-identifier:15.0.1] C:\Users\USER\.gradle\caches\transforms-1\files-1.1\play-services-ads-identifier-15.0.1.aar\0dd7d8f982ba3c2bebcae82adc5f443d\AndroidManifest.xml:20:5-44
MERGED from [com.google.android.gms:play-services-ads-identifier:15.0.1] C:\Users\USER\.gradle\caches\transforms-1\files-1.1\play-services-ads-identifier-15.0.1.aar\0dd7d8f982ba3c2bebcae82adc5f443d\AndroidManifest.xml:20:5-44
MERGED from [com.google.android.gms:play-services-stats:15.0.1] C:\Users\USER\.gradle\caches\transforms-1\files-1.1\play-services-stats-15.0.1.aar\b183550fd8a37a142e4a9db851be1feb\AndroidManifest.xml:5:5-44
MERGED from [com.google.android.gms:play-services-stats:15.0.1] C:\Users\USER\.gradle\caches\transforms-1\files-1.1\play-services-stats-15.0.1.aar\b183550fd8a37a142e4a9db851be1feb\AndroidManifest.xml:5:5-44
MERGED from [com.google.firebase:firebase-measurement-connector:16.0.0] C:\Users\USER\.gradle\caches\transforms-1\files-1.1\firebase-measurement-connector-16.0.0.aar\cb465ec6d908f6a48d698f62993ad548\AndroidManifest.xml:20:5-44
MERGED from [com.google.firebase:firebase-measurement-connector:16.0.0] C:\Users\USER\.gradle\caches\transforms-1\files-1.1\firebase-measurement-connector-16.0.0.aar\cb465ec6d908f6a48d698f62993ad548\AndroidManifest.xml:20:5-44
MERGED from [com.google.android.gms:play-services-basement:15.0.1] C:\Users\USER\.gradle\caches\transforms-1\files-1.1\play-services-basement-15.0.1.aar\bb926056b08e5fcb7dda06c84676af3e\AndroidManifest.xml:20:5-44
MERGED from [com.google.android.gms:play-services-basement:15.0.1] C:\Users\USER\.gradle\caches\transforms-1\files-1.1\play-services-basement-15.0.1.aar\bb926056b08e5fcb7dda06c84676af3e\AndroidManifest.xml:20:5-44
MERGED from [com.google.android.gms:play-services-measurement-base:16.0.0] C:\Users\USER\.gradle\caches\transforms-1\files-1.1\play-services-measurement-base-16.0.0.aar\4e7615b876d056b079655a9fb0eea329\AndroidManifest.xml:20:5-44
MERGED from [com.google.android.gms:play-services-measurement-base:16.0.0] C:\Users\USER\.gradle\caches\transforms-1\files-1.1\play-services-measurement-base-16.0.0.aar\4e7615b876d056b079655a9fb0eea329\AndroidManifest.xml:20:5-44
MERGED from [com.facebook.android:facebook-login:4.35.0] C:\Users\USER\.gradle\caches\transforms-1\files-1.1\facebook-login-4.35.0.aar\4e168e19a6f5280f92cca718889bea83\AndroidManifest.xml:24:5-26:41
MERGED from [com.facebook.android:facebook-login:4.35.0] C:\Users\USER\.gradle\caches\transforms-1\files-1.1\facebook-login-4.35.0.aar\4e168e19a6f5280f92cca718889bea83\AndroidManifest.xml:24:5-26:41
MERGED from [com.facebook.android:facebook-share:4.35.0] C:\Users\USER\.gradle\caches\transforms-1\files-1.1\facebook-share-4.35.0.aar\1d61b3cc2ce27863c5331ad9fa8752bb\AndroidManifest.xml:24:5-26:41
MERGED from [com.facebook.android:facebook-share:4.35.0] C:\Users\USER\.gradle\caches\transforms-1\files-1.1\facebook-share-4.35.0.aar\1d61b3cc2ce27863c5331ad9fa8752bb\AndroidManifest.xml:24:5-26:41
MERGED from [com.facebook.android:facebook-common:4.35.0] C:\Users\USER\.gradle\caches\transforms-1\files-1.1\facebook-common-4.35.0.aar\22b30b68eac818cfa009782448bb4405\AndroidManifest.xml:24:5-26:41
MERGED from [com.facebook.android:facebook-common:4.35.0] C:\Users\USER\.gradle\caches\transforms-1\files-1.1\facebook-common-4.35.0.aar\22b30b68eac818cfa009782448bb4405\AndroidManifest.xml:24:5-26:41
MERGED from [com.facebook.android:facebook-places:4.35.0] C:\Users\USER\.gradle\caches\transforms-1\files-1.1\facebook-places-4.35.0.aar\9392908c9f4ee28a0bfc77da94775a46\AndroidManifest.xml:24:5-26:41
MERGED from [com.facebook.android:facebook-places:4.35.0] C:\Users\USER\.gradle\caches\transforms-1\files-1.1\facebook-places-4.35.0.aar\9392908c9f4ee28a0bfc77da94775a46\AndroidManifest.xml:24:5-26:41
MERGED from [com.facebook.android:facebook-applinks:4.35.0] C:\Users\USER\.gradle\caches\transforms-1\files-1.1\facebook-applinks-4.35.0.aar\6f9d643770740abe37464f508c696d96\AndroidManifest.xml:24:5-26:41
MERGED from [com.facebook.android:facebook-applinks:4.35.0] C:\Users\USER\.gradle\caches\transforms-1\files-1.1\facebook-applinks-4.35.0.aar\6f9d643770740abe37464f508c696d96\AndroidManifest.xml:24:5-26:41
MERGED from [com.facebook.android:facebook-messenger:4.35.0] C:\Users\USER\.gradle\caches\transforms-1\files-1.1\facebook-messenger-4.35.0.aar\d737611ac3b97f241c533d6b58e96499\AndroidManifest.xml:24:5-26:41
MERGED from [com.facebook.android:facebook-messenger:4.35.0] C:\Users\USER\.gradle\caches\transforms-1\files-1.1\facebook-messenger-4.35.0.aar\d737611ac3b97f241c533d6b58e96499\AndroidManifest.xml:24:5-26:41
MERGED from [com.facebook.android:facebook-marketing:4.35.0] C:\Users\USER\.gradle\caches\transforms-1\files-1.1\facebook-marketing-4.35.0.aar\a4a21d30d0ef15c2679df6fc5d7ec846\AndroidManifest.xml:24:5-26:41
MERGED from [com.facebook.android:facebook-marketing:4.35.0] C:\Users\USER\.gradle\caches\transforms-1\files-1.1\facebook-marketing-4.35.0.aar\a4a21d30d0ef15c2679df6fc5d7ec846\AndroidManifest.xml:24:5-26:41
MERGED from [com.facebook.android:facebook-core:4.35.0] C:\Users\USER\.gradle\caches\transforms-1\files-1.1\facebook-core-4.35.0.aar\98a1683320e19566903ab7a6cff867f3\AndroidManifest.xml:24:5-26:41
MERGED from [com.facebook.android:facebook-core:4.35.0] C:\Users\USER\.gradle\caches\transforms-1\files-1.1\facebook-core-4.35.0.aar\98a1683320e19566903ab7a6cff867f3\AndroidManifest.xml:24:5-26:41
MERGED from [com.android.support:support-v4:27.0.2] C:\Users\USER\.gradle\caches\transforms-1\files-1.1\support-v4-27.0.2.aar\bd6e7c523e49c05693532452c962ad53\AndroidManifest.xml:20:5-44
MERGED from [com.android.support:support-v4:27.0.2] C:\Users\USER\.gradle\caches\transforms-1\files-1.1\support-v4-27.0.2.aar\bd6e7c523e49c05693532452c962ad53\AndroidManifest.xml:20:5-44
MERGED from [com.android.support:appcompat-v7:27.0.2] C:\Users\USER\.gradle\caches\transforms-1\files-1.1\appcompat-v7-27.0.2.aar\d1f64775c2635c570d1ca53d14520f0d\AndroidManifest.xml:20:5-44
MERGED from [com.android.support:appcompat-v7:27.0.2] C:\Users\USER\.gradle\caches\transforms-1\files-1.1\appcompat-v7-27.0.2.aar\d1f64775c2635c570d1ca53d14520f0d\AndroidManifest.xml:20:5-44
MERGED from [com.android.support:support-fragment:27.0.2] C:\Users\USER\.gradle\caches\transforms-1\files-1.1\support-fragment-27.0.2.aar\320f2972907194ad604fb07164295302\AndroidManifest.xml:20:5-44
MERGED from [com.android.support:support-fragment:27.0.2] C:\Users\USER\.gradle\caches\transforms-1\files-1.1\support-fragment-27.0.2.aar\320f2972907194ad604fb07164295302\AndroidManifest.xml:20:5-44
MERGED from [com.android.support:support-core-utils:27.0.2] C:\Users\USER\.gradle\caches\transforms-1\files-1.1\support-core-utils-27.0.2.aar\5c3c33cb3df817731db5d2efe4264408\AndroidManifest.xml:20:5-44
MERGED from [com.android.support:support-core-utils:27.0.2] C:\Users\USER\.gradle\caches\transforms-1\files-1.1\support-core-utils-27.0.2.aar\5c3c33cb3df817731db5d2efe4264408\AndroidManifest.xml:20:5-44
MERGED from [com.android.support:cardview-v7:27.0.2] C:\Users\USER\.gradle\caches\transforms-1\files-1.1\cardview-v7-27.0.2.aar\042efc500565438d2779a5f657b726e2\AndroidManifest.xml:20:5-44
MERGED from [com.android.support:cardview-v7:27.0.2] C:\Users\USER\.gradle\caches\transforms-1\files-1.1\cardview-v7-27.0.2.aar\042efc500565438d2779a5f657b726e2\AndroidManifest.xml:20:5-44
MERGED from [com.android.support:customtabs:27.0.2] C:\Users\USER\.gradle\caches\transforms-1\files-1.1\customtabs-27.0.2.aar\eb80ff9f49f4c618979a594e5020201b\AndroidManifest.xml:20:5-44
MERGED from [com.android.support:customtabs:27.0.2] C:\Users\USER\.gradle\caches\transforms-1\files-1.1\customtabs-27.0.2.aar\eb80ff9f49f4c618979a594e5020201b\AndroidManifest.xml:20:5-44
MERGED from [com.android.support:animated-vector-drawable:27.0.2] C:\Users\USER\.gradle\caches\transforms-1\files-1.1\animated-vector-drawable-27.0.2.aar\5dce17d260ac29e243b32473e2c00b9d\AndroidManifest.xml:20:5-44
MERGED from [com.android.support:animated-vector-drawable:27.0.2] C:\Users\USER\.gradle\caches\transforms-1\files-1.1\animated-vector-drawable-27.0.2.aar\5dce17d260ac29e243b32473e2c00b9d\AndroidManifest.xml:20:5-44
MERGED from [com.android.support:support-vector-drawable:27.0.2] C:\Users\USER\.gradle\caches\transforms-1\files-1.1\support-vector-drawable-27.0.2.aar\f164a5416d30fab9078d42d57c310493\AndroidManifest.xml:20:5-44
MERGED from [com.android.support:support-vector-drawable:27.0.2] C:\Users\USER\.gradle\caches\transforms-1\files-1.1\support-vector-drawable-27.0.2.aar\f164a5416d30fab9078d42d57c310493\AndroidManifest.xml:20:5-44
MERGED from [com.android.support:support-core-ui:27.0.2] C:\Users\USER\.gradle\caches\transforms-1\files-1.1\support-core-ui-27.0.2.aar\c918ea4b848e5a664a8005cc0729c4fd\AndroidManifest.xml:20:5-44
MERGED from [com.android.support:support-core-ui:27.0.2] C:\Users\USER\.gradle\caches\transforms-1\files-1.1\support-core-ui-27.0.2.aar\c918ea4b848e5a664a8005cc0729c4fd\AndroidManifest.xml:20:5-44
MERGED from [com.android.support:support-media-compat:27.0.2] C:\Users\USER\.gradle\caches\transforms-1\files-1.1\support-media-compat-27.0.2.aar\f8e20760e643ccc1f0dc3b99a4486bca\AndroidManifest.xml:20:5-44
MERGED from [com.android.support:support-media-compat:27.0.2] C:\Users\USER\.gradle\caches\transforms-1\files-1.1\support-media-compat-27.0.2.aar\f8e20760e643ccc1f0dc3b99a4486bca\AndroidManifest.xml:20:5-44
MERGED from [com.android.support:support-compat:27.0.2] C:\Users\USER\.gradle\caches\transforms-1\files-1.1\support-compat-27.0.2.aar\0202c0bf5e1022ed1c56c996b8cc4854\AndroidManifest.xml:20:5-44
MERGED from [com.android.support:support-compat:27.0.2] C:\Users\USER\.gradle\caches\transforms-1\files-1.1\support-compat-27.0.2.aar\0202c0bf5e1022ed1c56c996b8cc4854\AndroidManifest.xml:20:5-44
MERGED from [android.arch.lifecycle:runtime:1.0.3] C:\Users\USER\.gradle\caches\transforms-1\files-1.1\runtime-1.0.3.aar\266fd3abe9a2d0469101224619f7ec95\AndroidManifest.xml:20:5-22:41
MERGED from [android.arch.lifecycle:runtime:1.0.3] C:\Users\USER\.gradle\caches\transforms-1\files-1.1\runtime-1.0.3.aar\266fd3abe9a2d0469101224619f7ec95\AndroidManifest.xml:20:5-22:41
	android:targetSdkVersion
		ADDED from C:\Users\USER\Desktop\github\ezmath\platforms\android\app\src\main\AndroidManifest.xml:28:42-71
	android:minSdkVersion
		ADDED from C:\Users\USER\Desktop\github\ezmath\platforms\android\app\src\main\AndroidManifest.xml:28:15-41
uses-permission#android.permission.ACCESS_NETWORK_STATE
ADDED from C:\Users\USER\Desktop\github\ezmath\platforms\android\app\src\main\AndroidManifest.xml:29:5-79
MERGED from [com.google.firebase:firebase-measurement-connector-impl:16.0.1] C:\Users\USER\.gradle\caches\transforms-1\files-1.1\firebase-measurement-connector-impl-16.0.1.aar\c7ee6fb48c1881327a48a154f1c6411b\AndroidManifest.xml:23:5-79
MERGED from [com.google.firebase:firebase-measurement-connector-impl:16.0.1] C:\Users\USER\.gradle\caches\transforms-1\files-1.1\firebase-measurement-connector-impl-16.0.1.aar\c7ee6fb48c1881327a48a154f1c6411b\AndroidManifest.xml:23:5-79
MERGED from [com.google.android.gms:play-services-tagmanager-api:16.0.1] C:\Users\USER\.gradle\caches\transforms-1\files-1.1\play-services-tagmanager-api-16.0.1.aar\493547ac8c42459d031d3678916ccf00\AndroidManifest.xml:24:5-79
MERGED from [com.google.android.gms:play-services-tagmanager-api:16.0.1] C:\Users\USER\.gradle\caches\transforms-1\files-1.1\play-services-tagmanager-api-16.0.1.aar\493547ac8c42459d031d3678916ccf00\AndroidManifest.xml:24:5-79
MERGED from [com.google.firebase:firebase-analytics:16.0.1] C:\Users\USER\.gradle\caches\transforms-1\files-1.1\firebase-analytics-16.0.1.aar\c93e50037aac1cf5df075420ec8327ae\AndroidManifest.xml:24:5-79
MERGED from [com.google.firebase:firebase-analytics:16.0.1] C:\Users\USER\.gradle\caches\transforms-1\files-1.1\firebase-analytics-16.0.1.aar\c93e50037aac1cf5df075420ec8327ae\AndroidManifest.xml:24:5-79
MERGED from [com.google.firebase:firebase-analytics-impl:16.1.1] C:\Users\USER\.gradle\caches\transforms-1\files-1.1\firebase-analytics-impl-16.1.1.aar\1d1f5fabb2846d3880f6d051477de6d3\AndroidManifest.xml:24:5-79
MERGED from [com.google.firebase:firebase-analytics-impl:16.1.1] C:\Users\USER\.gradle\caches\transforms-1\files-1.1\firebase-analytics-impl-16.1.1.aar\1d1f5fabb2846d3880f6d051477de6d3\AndroidManifest.xml:24:5-79
MERGED from [com.google.firebase:firebase-iid:16.2.0] C:\Users\USER\.gradle\caches\transforms-1\files-1.1\firebase-iid-16.2.0.aar\8e3d19787330005bca9b125a79b78656\AndroidManifest.xml:22:5-79
MERGED from [com.google.firebase:firebase-iid:16.2.0] C:\Users\USER\.gradle\caches\transforms-1\files-1.1\firebase-iid-16.2.0.aar\8e3d19787330005bca9b125a79b78656\AndroidManifest.xml:22:5-79
MERGED from [com.google.android.gms:play-services-analytics-impl:16.0.1] C:\Users\USER\.gradle\caches\transforms-1\files-1.1\play-services-analytics-impl-16.0.1.aar\f56aee114d00e8ccd9a7faae9a0f7ef3\AndroidManifest.xml:24:5-79
MERGED from [com.google.android.gms:play-services-analytics-impl:16.0.1] C:\Users\USER\.gradle\caches\transforms-1\files-1.1\play-services-analytics-impl-16.0.1.aar\f56aee114d00e8ccd9a7faae9a0f7ef3\AndroidManifest.xml:24:5-79
	android:name
		ADDED from C:\Users\USER\Desktop\github\ezmath\platforms\android\app\src\main\AndroidManifest.xml:29:22-76
uses-permission#android.permission.WAKE_LOCK
ADDED from C:\Users\USER\Desktop\github\ezmath\platforms\android\app\src\main\AndroidManifest.xml:30:5-68
MERGED from [com.google.firebase:firebase-measurement-connector-impl:16.0.1] C:\Users\USER\.gradle\caches\transforms-1\files-1.1\firebase-measurement-connector-impl-16.0.1.aar\c7ee6fb48c1881327a48a154f1c6411b\AndroidManifest.xml:24:5-68
MERGED from [com.google.firebase:firebase-measurement-connector-impl:16.0.1] C:\Users\USER\.gradle\caches\transforms-1\files-1.1\firebase-measurement-connector-impl-16.0.1.aar\c7ee6fb48c1881327a48a154f1c6411b\AndroidManifest.xml:24:5-68
MERGED from [com.google.firebase:firebase-analytics:16.0.1] C:\Users\USER\.gradle\caches\transforms-1\files-1.1\firebase-analytics-16.0.1.aar\c93e50037aac1cf5df075420ec8327ae\AndroidManifest.xml:25:5-68
MERGED from [com.google.firebase:firebase-analytics:16.0.1] C:\Users\USER\.gradle\caches\transforms-1\files-1.1\firebase-analytics-16.0.1.aar\c93e50037aac1cf5df075420ec8327ae\AndroidManifest.xml:25:5-68
MERGED from [com.google.firebase:firebase-analytics-impl:16.1.1] C:\Users\USER\.gradle\caches\transforms-1\files-1.1\firebase-analytics-impl-16.1.1.aar\1d1f5fabb2846d3880f6d051477de6d3\AndroidManifest.xml:25:5-68
MERGED from [com.google.firebase:firebase-analytics-impl:16.1.1] C:\Users\USER\.gradle\caches\transforms-1\files-1.1\firebase-analytics-impl-16.1.1.aar\1d1f5fabb2846d3880f6d051477de6d3\AndroidManifest.xml:25:5-68
MERGED from [com.google.firebase:firebase-iid:16.2.0] C:\Users\USER\.gradle\caches\transforms-1\files-1.1\firebase-iid-16.2.0.aar\8e3d19787330005bca9b125a79b78656\AndroidManifest.xml:24:5-68
MERGED from [com.google.firebase:firebase-iid:16.2.0] C:\Users\USER\.gradle\caches\transforms-1\files-1.1\firebase-iid-16.2.0.aar\8e3d19787330005bca9b125a79b78656\AndroidManifest.xml:24:5-68
MERGED from [com.google.android.gms:play-services-analytics-impl:16.0.1] C:\Users\USER\.gradle\caches\transforms-1\files-1.1\play-services-analytics-impl-16.0.1.aar\f56aee114d00e8ccd9a7faae9a0f7ef3\AndroidManifest.xml:27:5-68
MERGED from [com.google.android.gms:play-services-analytics-impl:16.0.1] C:\Users\USER\.gradle\caches\transforms-1\files-1.1\play-services-analytics-impl-16.0.1.aar\f56aee114d00e8ccd9a7faae9a0f7ef3\AndroidManifest.xml:27:5-68
	android:name
		ADDED from C:\Users\USER\Desktop\github\ezmath\platforms\android\app\src\main\AndroidManifest.xml:30:22-65
uses-permission#com.sec.android.provider.badge.permission.READ
ADDED from [me.leolin:ShortcutBadger:1.1.4] C:\Users\USER\.gradle\caches\transforms-1\files-1.1\ShortcutBadger-1.1.4.aar\9a2db3d288cc06b1564d5ffbbe91129a\AndroidManifest.xml:19:5-86
	android:name
		ADDED from [me.leolin:ShortcutBadger:1.1.4] C:\Users\USER\.gradle\caches\transforms-1\files-1.1\ShortcutBadger-1.1.4.aar\9a2db3d288cc06b1564d5ffbbe91129a\AndroidManifest.xml:19:22-83
uses-permission#com.sec.android.provider.badge.permission.WRITE
ADDED from [me.leolin:ShortcutBadger:1.1.4] C:\Users\USER\.gradle\caches\transforms-1\files-1.1\ShortcutBadger-1.1.4.aar\9a2db3d288cc06b1564d5ffbbe91129a\AndroidManifest.xml:20:5-87
	android:name
		ADDED from [me.leolin:ShortcutBadger:1.1.4] C:\Users\USER\.gradle\caches\transforms-1\files-1.1\ShortcutBadger-1.1.4.aar\9a2db3d288cc06b1564d5ffbbe91129a\AndroidManifest.xml:20:22-84
uses-permission#com.htc.launcher.permission.READ_SETTINGS
ADDED from [me.leolin:ShortcutBadger:1.1.4] C:\Users\USER\.gradle\caches\transforms-1\files-1.1\ShortcutBadger-1.1.4.aar\9a2db3d288cc06b1564d5ffbbe91129a\AndroidManifest.xml:23:5-81
	android:name
		ADDED from [me.leolin:ShortcutBadger:1.1.4] C:\Users\USER\.gradle\caches\transforms-1\files-1.1\ShortcutBadger-1.1.4.aar\9a2db3d288cc06b1564d5ffbbe91129a\AndroidManifest.xml:23:22-78
uses-permission#com.htc.launcher.permission.UPDATE_SHORTCUT
ADDED from [me.leolin:ShortcutBadger:1.1.4] C:\Users\USER\.gradle\caches\transforms-1\files-1.1\ShortcutBadger-1.1.4.aar\9a2db3d288cc06b1564d5ffbbe91129a\AndroidManifest.xml:24:5-83
	android:name
		ADDED from [me.leolin:ShortcutBadger:1.1.4] C:\Users\USER\.gradle\caches\transforms-1\files-1.1\ShortcutBadger-1.1.4.aar\9a2db3d288cc06b1564d5ffbbe91129a\AndroidManifest.xml:24:22-80
uses-permission#com.sonyericsson.home.permission.BROADCAST_BADGE
ADDED from [me.leolin:ShortcutBadger:1.1.4] C:\Users\USER\.gradle\caches\transforms-1\files-1.1\ShortcutBadger-1.1.4.aar\9a2db3d288cc06b1564d5ffbbe91129a\AndroidManifest.xml:27:5-88
	android:name
		ADDED from [me.leolin:ShortcutBadger:1.1.4] C:\Users\USER\.gradle\caches\transforms-1\files-1.1\ShortcutBadger-1.1.4.aar\9a2db3d288cc06b1564d5ffbbe91129a\AndroidManifest.xml:27:22-85
uses-permission#com.anddoes.launcher.permission.UPDATE_COUNT
ADDED from [me.leolin:ShortcutBadger:1.1.4] C:\Users\USER\.gradle\caches\transforms-1\files-1.1\ShortcutBadger-1.1.4.aar\9a2db3d288cc06b1564d5ffbbe91129a\AndroidManifest.xml:30:5-84
	android:name
		ADDED from [me.leolin:ShortcutBadger:1.1.4] C:\Users\USER\.gradle\caches\transforms-1\files-1.1\ShortcutBadger-1.1.4.aar\9a2db3d288cc06b1564d5ffbbe91129a\AndroidManifest.xml:30:22-81
uses-permission#com.majeur.launcher.permission.UPDATE_BADGE
ADDED from [me.leolin:ShortcutBadger:1.1.4] C:\Users\USER\.gradle\caches\transforms-1\files-1.1\ShortcutBadger-1.1.4.aar\9a2db3d288cc06b1564d5ffbbe91129a\AndroidManifest.xml:33:5-83
	android:name
		ADDED from [me.leolin:ShortcutBadger:1.1.4] C:\Users\USER\.gradle\caches\transforms-1\files-1.1\ShortcutBadger-1.1.4.aar\9a2db3d288cc06b1564d5ffbbe91129a\AndroidManifest.xml:33:22-80
activity#com.google.firebase.auth.internal.FederatedSignInActivity
ADDED from [com.google.firebase:firebase-auth:16.0.2] C:\Users\USER\.gradle\caches\transforms-1\files-1.1\firebase-auth-16.0.2.aar\c5f069bb0bb706f73076c582768ba6b8\AndroidManifest.xml:23:9-29:75
	android:excludeFromRecents
		ADDED from [com.google.firebase:firebase-auth:16.0.2] C:\Users\USER\.gradle\caches\transforms-1\files-1.1\firebase-auth-16.0.2.aar\c5f069bb0bb706f73076c582768ba6b8\AndroidManifest.xml:25:13-46
	android:launchMode
		ADDED from [com.google.firebase:firebase-auth:16.0.2] C:\Users\USER\.gradle\caches\transforms-1\files-1.1\firebase-auth-16.0.2.aar\c5f069bb0bb706f73076c582768ba6b8\AndroidManifest.xml:27:13-48
	android:exported
		ADDED from [com.google.firebase:firebase-auth:16.0.2] C:\Users\USER\.gradle\caches\transforms-1\files-1.1\firebase-auth-16.0.2.aar\c5f069bb0bb706f73076c582768ba6b8\AndroidManifest.xml:26:13-36
	android:permission
		ADDED from [com.google.firebase:firebase-auth:16.0.2] C:\Users\USER\.gradle\caches\transforms-1\files-1.1\firebase-auth-16.0.2.aar\c5f069bb0bb706f73076c582768ba6b8\AndroidManifest.xml:28:13-102
	android:theme
		ADDED from [com.google.firebase:firebase-auth:16.0.2] C:\Users\USER\.gradle\caches\transforms-1\files-1.1\firebase-auth-16.0.2.aar\c5f069bb0bb706f73076c582768ba6b8\AndroidManifest.xml:29:13-72
	android:name
		ADDED from [com.google.firebase:firebase-auth:16.0.2] C:\Users\USER\.gradle\caches\transforms-1\files-1.1\firebase-auth-16.0.2.aar\c5f069bb0bb706f73076c582768ba6b8\AndroidManifest.xml:24:13-85
service#com.google.firebase.components.ComponentDiscoveryService
ADDED from [com.google.firebase:firebase-auth:16.0.2] C:\Users\USER\.gradle\caches\transforms-1\files-1.1\firebase-auth-16.0.2.aar\c5f069bb0bb706f73076c582768ba6b8\AndroidManifest.xml:31:9-35:19
MERGED from [com.google.firebase:firebase-perf:16.0.0] C:\Users\USER\.gradle\caches\transforms-1\files-1.1\firebase-perf-16.0.0.aar\18e2fa54227d928988f88181698bcebe\AndroidManifest.xml:34:9-38:19
MERGED from [com.google.firebase:firebase-perf:16.0.0] C:\Users\USER\.gradle\caches\transforms-1\files-1.1\firebase-perf-16.0.0.aar\18e2fa54227d928988f88181698bcebe\AndroidManifest.xml:34:9-38:19
MERGED from [com.google.firebase:firebase-measurement-connector-impl:16.0.1] C:\Users\USER\.gradle\caches\transforms-1\files-1.1\firebase-measurement-connector-impl-16.0.1.aar\c7ee6fb48c1881327a48a154f1c6411b\AndroidManifest.xml:27:9-31:19
MERGED from [com.google.firebase:firebase-measurement-connector-impl:16.0.1] C:\Users\USER\.gradle\caches\transforms-1\files-1.1\firebase-measurement-connector-impl-16.0.1.aar\c7ee6fb48c1881327a48a154f1c6411b\AndroidManifest.xml:27:9-31:19
MERGED from [com.google.firebase:firebase-iid:16.2.0] C:\Users\USER\.gradle\caches\transforms-1\files-1.1\firebase-iid-16.2.0.aar\8e3d19787330005bca9b125a79b78656\AndroidManifest.xml:35:9-39:19
MERGED from [com.google.firebase:firebase-iid:16.2.0] C:\Users\USER\.gradle\caches\transforms-1\files-1.1\firebase-iid-16.2.0.aar\8e3d19787330005bca9b125a79b78656\AndroidManifest.xml:35:9-39:19
	android:name
		ADDED from [com.google.firebase:firebase-auth:16.0.2] C:\Users\USER\.gradle\caches\transforms-1\files-1.1\firebase-auth-16.0.2.aar\c5f069bb0bb706f73076c582768ba6b8\AndroidManifest.xml:31:18-89
meta-data#com.google.firebase.components:com.google.firebase.auth.FirebaseAuthRegistrar
ADDED from [com.google.firebase:firebase-auth:16.0.2] C:\Users\USER\.gradle\caches\transforms-1\files-1.1\firebase-auth-16.0.2.aar\c5f069bb0bb706f73076c582768ba6b8\AndroidManifest.xml:32:13-34:85
	android:value
		ADDED from [com.google.firebase:firebase-auth:16.0.2] C:\Users\USER\.gradle\caches\transforms-1\files-1.1\firebase-auth-16.0.2.aar\c5f069bb0bb706f73076c582768ba6b8\AndroidManifest.xml:34:17-82
	android:name
		ADDED from [com.google.firebase:firebase-auth:16.0.2] C:\Users\USER\.gradle\caches\transforms-1\files-1.1\firebase-auth-16.0.2.aar\c5f069bb0bb706f73076c582768ba6b8\AndroidManifest.xml:33:17-109
service#com.google.firebase.messaging.FirebaseMessagingService
ADDED from [com.google.firebase:firebase-messaging:17.1.0] C:\Users\USER\.gradle\caches\transforms-1\files-1.1\firebase-messaging-17.1.0.aar\e662ed27d96b874b70c0973d80ee9a08\AndroidManifest.xml:28:9-34:19
	android:exported
		ADDED from [com.google.firebase:firebase-messaging:17.1.0] C:\Users\USER\.gradle\caches\transforms-1\files-1.1\firebase-messaging-17.1.0.aar\e662ed27d96b874b70c0973d80ee9a08\AndroidManifest.xml:30:13-36
	android:name
		ADDED from [com.google.firebase:firebase-messaging:17.1.0] C:\Users\USER\.gradle\caches\transforms-1\files-1.1\firebase-messaging-17.1.0.aar\e662ed27d96b874b70c0973d80ee9a08\AndroidManifest.xml:29:13-82
uses-permission#com.google.android.providers.gsf.permission.READ_GSERVICES
ADDED from [com.google.firebase:firebase-perf:16.0.0] C:\Users\USER\.gradle\caches\transforms-1\files-1.1\firebase-perf-16.0.0.aar\18e2fa54227d928988f88181698bcebe\AndroidManifest.xml:23:5-98
	android:name
		ADDED from [com.google.firebase:firebase-perf:16.0.0] C:\Users\USER\.gradle\caches\transforms-1\files-1.1\firebase-perf-16.0.0.aar\18e2fa54227d928988f88181698bcebe\AndroidManifest.xml:23:22-95
provider#com.google.firebase.perf.provider.FirebasePerfProvider
ADDED from [com.google.firebase:firebase-perf:16.0.0] C:\Users\USER\.gradle\caches\transforms-1\files-1.1\firebase-perf-16.0.0.aar\18e2fa54227d928988f88181698bcebe\AndroidManifest.xml:28:9-32:39
	android:authorities
		ADDED from [com.google.firebase:firebase-perf:16.0.0] C:\Users\USER\.gradle\caches\transforms-1\files-1.1\firebase-perf-16.0.0.aar\18e2fa54227d928988f88181698bcebe\AndroidManifest.xml:30:13-72
	android:exported
		ADDED from [com.google.firebase:firebase-perf:16.0.0] C:\Users\USER\.gradle\caches\transforms-1\files-1.1\firebase-perf-16.0.0.aar\18e2fa54227d928988f88181698bcebe\AndroidManifest.xml:31:13-37
	android:initOrder
		ADDED from [com.google.firebase:firebase-perf:16.0.0] C:\Users\USER\.gradle\caches\transforms-1\files-1.1\firebase-perf-16.0.0.aar\18e2fa54227d928988f88181698bcebe\AndroidManifest.xml:32:13-36
	android:name
		ADDED from [com.google.firebase:firebase-perf:16.0.0] C:\Users\USER\.gradle\caches\transforms-1\files-1.1\firebase-perf-16.0.0.aar\18e2fa54227d928988f88181698bcebe\AndroidManifest.xml:29:13-82
meta-data#com.google.firebase.components:com.google.firebase.perf.component.FirebasePerfRegistrar
ADDED from [com.google.firebase:firebase-perf:16.0.0] C:\Users\USER\.gradle\caches\transforms-1\files-1.1\firebase-perf-16.0.0.aar\18e2fa54227d928988f88181698bcebe\AndroidManifest.xml:35:13-37:85
	android:value
		ADDED from [com.google.firebase:firebase-perf:16.0.0] C:\Users\USER\.gradle\caches\transforms-1\files-1.1\firebase-perf-16.0.0.aar\18e2fa54227d928988f88181698bcebe\AndroidManifest.xml:37:17-82
	android:name
		ADDED from [com.google.firebase:firebase-perf:16.0.0] C:\Users\USER\.gradle\caches\transforms-1\files-1.1\firebase-perf-16.0.0.aar\18e2fa54227d928988f88181698bcebe\AndroidManifest.xml:36:17-119
meta-data#com.google.firebase.components:com.google.firebase.analytics.connector.internal.AnalyticsConnectorRegistrar
ADDED from [com.google.firebase:firebase-measurement-connector-impl:16.0.1] C:\Users\USER\.gradle\caches\transforms-1\files-1.1\firebase-measurement-connector-impl-16.0.1.aar\c7ee6fb48c1881327a48a154f1c6411b\AndroidManifest.xml:28:13-30:85
	android:value
		ADDED from [com.google.firebase:firebase-measurement-connector-impl:16.0.1] C:\Users\USER\.gradle\caches\transforms-1\files-1.1\firebase-measurement-connector-impl-16.0.1.aar\c7ee6fb48c1881327a48a154f1c6411b\AndroidManifest.xml:30:17-82
	android:name
		ADDED from [com.google.firebase:firebase-measurement-connector-impl:16.0.1] C:\Users\USER\.gradle\caches\transforms-1\files-1.1\firebase-measurement-connector-impl-16.0.1.aar\c7ee6fb48c1881327a48a154f1c6411b\AndroidManifest.xml:29:17-139
service#com.google.android.gms.tagmanager.TagManagerService
ADDED from [com.google.android.gms:play-services-tagmanager-api:16.0.1] C:\Users\USER\.gradle\caches\transforms-1\files-1.1\play-services-tagmanager-api-16.0.1.aar\493547ac8c42459d031d3678916ccf00\AndroidManifest.xml:27:9-30:40
	android:enabled
		ADDED from [com.google.android.gms:play-services-tagmanager-api:16.0.1] C:\Users\USER\.gradle\caches\transforms-1\files-1.1\play-services-tagmanager-api-16.0.1.aar\493547ac8c42459d031d3678916ccf00\AndroidManifest.xml:29:13-35
	android:exported
		ADDED from [com.google.android.gms:play-services-tagmanager-api:16.0.1] C:\Users\USER\.gradle\caches\transforms-1\files-1.1\play-services-tagmanager-api-16.0.1.aar\493547ac8c42459d031d3678916ccf00\AndroidManifest.xml:30:13-37
	android:name
		ADDED from [com.google.android.gms:play-services-tagmanager-api:16.0.1] C:\Users\USER\.gradle\caches\transforms-1\files-1.1\play-services-tagmanager-api-16.0.1.aar\493547ac8c42459d031d3678916ccf00\AndroidManifest.xml:28:13-79
activity#com.google.android.gms.tagmanager.TagManagerPreviewActivity
ADDED from [com.google.android.gms:play-services-tagmanager-api:16.0.1] C:\Users\USER\.gradle\caches\transforms-1\files-1.1\play-services-tagmanager-api-16.0.1.aar\493547ac8c42459d031d3678916ccf00\AndroidManifest.xml:32:9-44:20
	android:noHistory
		ADDED from [com.google.android.gms:play-services-tagmanager-api:16.0.1] C:\Users\USER\.gradle\caches\transforms-1\files-1.1\play-services-tagmanager-api-16.0.1.aar\493547ac8c42459d031d3678916ccf00\AndroidManifest.xml:35:13-37
	android:exported
		ADDED from [com.google.android.gms:play-services-tagmanager-api:16.0.1] C:\Users\USER\.gradle\caches\transforms-1\files-1.1\play-services-tagmanager-api-16.0.1.aar\493547ac8c42459d031d3678916ccf00\AndroidManifest.xml:34:13-36
	android:name
		ADDED from [com.google.android.gms:play-services-tagmanager-api:16.0.1] C:\Users\USER\.gradle\caches\transforms-1\files-1.1\play-services-tagmanager-api-16.0.1.aar\493547ac8c42459d031d3678916ccf00\AndroidManifest.xml:33:13-87
intent-filter#android.intent.action.VIEW+android.intent.category.BROWSABLE+android.intent.category.DEFAULT
ADDED from [com.google.android.gms:play-services-tagmanager-api:16.0.1] C:\Users\USER\.gradle\caches\transforms-1\files-1.1\play-services-tagmanager-api-16.0.1.aar\493547ac8c42459d031d3678916ccf00\AndroidManifest.xml:36:13-43:29
data
ADDED from [com.google.android.gms:play-services-tagmanager-api:16.0.1] C:\Users\USER\.gradle\caches\transforms-1\files-1.1\play-services-tagmanager-api-16.0.1.aar\493547ac8c42459d031d3678916ccf00\AndroidManifest.xml:37:17-72
	android:scheme
		ADDED from [com.google.android.gms:play-services-tagmanager-api:16.0.1] C:\Users\USER\.gradle\caches\transforms-1\files-1.1\play-services-tagmanager-api-16.0.1.aar\493547ac8c42459d031d3678916ccf00\AndroidManifest.xml:37:23-69
action#android.intent.action.VIEW
ADDED from [com.google.android.gms:play-services-tagmanager-api:16.0.1] C:\Users\USER\.gradle\caches\transforms-1\files-1.1\play-services-tagmanager-api-16.0.1.aar\493547ac8c42459d031d3678916ccf00\AndroidManifest.xml:39:17-69
	android:name
		ADDED from [com.google.android.gms:play-services-tagmanager-api:16.0.1] C:\Users\USER\.gradle\caches\transforms-1\files-1.1\play-services-tagmanager-api-16.0.1.aar\493547ac8c42459d031d3678916ccf00\AndroidManifest.xml:39:25-66
category#android.intent.category.DEFAULT
ADDED from [com.google.android.gms:play-services-tagmanager-api:16.0.1] C:\Users\USER\.gradle\caches\transforms-1\files-1.1\play-services-tagmanager-api-16.0.1.aar\493547ac8c42459d031d3678916ccf00\AndroidManifest.xml:41:17-76
	android:name
		ADDED from [com.google.android.gms:play-services-tagmanager-api:16.0.1] C:\Users\USER\.gradle\caches\transforms-1\files-1.1\play-services-tagmanager-api-16.0.1.aar\493547ac8c42459d031d3678916ccf00\AndroidManifest.xml:41:27-73
category#android.intent.category.BROWSABLE
ADDED from [com.google.android.gms:play-services-tagmanager-api:16.0.1] C:\Users\USER\.gradle\caches\transforms-1\files-1.1\play-services-tagmanager-api-16.0.1.aar\493547ac8c42459d031d3678916ccf00\AndroidManifest.xml:42:17-78
	android:name
		ADDED from [com.google.android.gms:play-services-tagmanager-api:16.0.1] C:\Users\USER\.gradle\caches\transforms-1\files-1.1\play-services-tagmanager-api-16.0.1.aar\493547ac8c42459d031d3678916ccf00\AndroidManifest.xml:42:27-75
uses-permission#com.google.android.finsky.permission.BIND_GET_INSTALL_REFERRER_SERVICE
ADDED from [com.google.firebase:firebase-analytics:16.0.1] C:\Users\USER\.gradle\caches\transforms-1\files-1.1\firebase-analytics-16.0.1.aar\c93e50037aac1cf5df075420ec8327ae\AndroidManifest.xml:26:5-110
MERGED from [com.google.firebase:firebase-analytics-impl:16.1.1] C:\Users\USER\.gradle\caches\transforms-1\files-1.1\firebase-analytics-impl-16.1.1.aar\1d1f5fabb2846d3880f6d051477de6d3\AndroidManifest.xml:26:5-110
MERGED from [com.google.firebase:firebase-analytics-impl:16.1.1] C:\Users\USER\.gradle\caches\transforms-1\files-1.1\firebase-analytics-impl-16.1.1.aar\1d1f5fabb2846d3880f6d051477de6d3\AndroidManifest.xml:26:5-110
	android:name
		ADDED from [com.google.firebase:firebase-analytics:16.0.1] C:\Users\USER\.gradle\caches\transforms-1\files-1.1\firebase-analytics-16.0.1.aar\c93e50037aac1cf5df075420ec8327ae\AndroidManifest.xml:26:22-107
receiver#com.google.android.gms.measurement.AppMeasurementReceiver
ADDED from [com.google.firebase:firebase-analytics:16.0.1] C:\Users\USER\.gradle\caches\transforms-1\files-1.1\firebase-analytics-16.0.1.aar\c93e50037aac1cf5df075420ec8327ae\AndroidManifest.xml:29:9-33:20
	android:enabled
		ADDED from [com.google.firebase:firebase-analytics:16.0.1] C:\Users\USER\.gradle\caches\transforms-1\files-1.1\firebase-analytics-16.0.1.aar\c93e50037aac1cf5df075420ec8327ae\AndroidManifest.xml:31:13-35
	android:exported
		ADDED from [com.google.firebase:firebase-analytics:16.0.1] C:\Users\USER\.gradle\caches\transforms-1\files-1.1\firebase-analytics-16.0.1.aar\c93e50037aac1cf5df075420ec8327ae\AndroidManifest.xml:32:13-37
	android:name
		ADDED from [com.google.firebase:firebase-analytics:16.0.1] C:\Users\USER\.gradle\caches\transforms-1\files-1.1\firebase-analytics-16.0.1.aar\c93e50037aac1cf5df075420ec8327ae\AndroidManifest.xml:30:13-85
receiver#com.google.android.gms.measurement.AppMeasurementInstallReferrerReceiver
ADDED from [com.google.firebase:firebase-analytics:16.0.1] C:\Users\USER\.gradle\caches\transforms-1\files-1.1\firebase-analytics-16.0.1.aar\c93e50037aac1cf5df075420ec8327ae\AndroidManifest.xml:34:9-42:20
MERGED from [com.google.firebase:firebase-analytics-impl:16.1.1] C:\Users\USER\.gradle\caches\transforms-1\files-1.1\firebase-analytics-impl-16.1.1.aar\1d1f5fabb2846d3880f6d051477de6d3\AndroidManifest.xml:29:9-37:20
MERGED from [com.google.firebase:firebase-analytics-impl:16.1.1] C:\Users\USER\.gradle\caches\transforms-1\files-1.1\firebase-analytics-impl-16.1.1.aar\1d1f5fabb2846d3880f6d051477de6d3\AndroidManifest.xml:29:9-37:20
	android:enabled
		ADDED from [com.google.firebase:firebase-analytics:16.0.1] C:\Users\USER\.gradle\caches\transforms-1\files-1.1\firebase-analytics-16.0.1.aar\c93e50037aac1cf5df075420ec8327ae\AndroidManifest.xml:36:13-35
	android:exported
		ADDED from [com.google.firebase:firebase-analytics:16.0.1] C:\Users\USER\.gradle\caches\transforms-1\files-1.1\firebase-analytics-16.0.1.aar\c93e50037aac1cf5df075420ec8327ae\AndroidManifest.xml:37:13-36
	android:permission
		ADDED from [com.google.firebase:firebase-analytics:16.0.1] C:\Users\USER\.gradle\caches\transforms-1\files-1.1\firebase-analytics-16.0.1.aar\c93e50037aac1cf5df075420ec8327ae\AndroidManifest.xml:38:13-69
	android:name
		ADDED from [com.google.firebase:firebase-analytics:16.0.1] C:\Users\USER\.gradle\caches\transforms-1\files-1.1\firebase-analytics-16.0.1.aar\c93e50037aac1cf5df075420ec8327ae\AndroidManifest.xml:35:13-100
intent-filter#com.android.vending.INSTALL_REFERRER
ADDED from [com.google.firebase:firebase-analytics:16.0.1] C:\Users\USER\.gradle\caches\transforms-1\files-1.1\firebase-analytics-16.0.1.aar\c93e50037aac1cf5df075420ec8327ae\AndroidManifest.xml:39:13-41:29
action#com.android.vending.INSTALL_REFERRER
ADDED from [com.google.firebase:firebase-analytics:16.0.1] C:\Users\USER\.gradle\caches\transforms-1\files-1.1\firebase-analytics-16.0.1.aar\c93e50037aac1cf5df075420ec8327ae\AndroidManifest.xml:40:17-79
	android:name
		ADDED from [com.google.firebase:firebase-analytics:16.0.1] C:\Users\USER\.gradle\caches\transforms-1\files-1.1\firebase-analytics-16.0.1.aar\c93e50037aac1cf5df075420ec8327ae\AndroidManifest.xml:40:25-76
service#com.google.android.gms.measurement.AppMeasurementJobService
ADDED from [com.google.firebase:firebase-analytics:16.0.1] C:\Users\USER\.gradle\caches\transforms-1\files-1.1\firebase-analytics-16.0.1.aar\c93e50037aac1cf5df075420ec8327ae\AndroidManifest.xml:48:9-52:72
	android:enabled
		ADDED from [com.google.firebase:firebase-analytics:16.0.1] C:\Users\USER\.gradle\caches\transforms-1\files-1.1\firebase-analytics-16.0.1.aar\c93e50037aac1cf5df075420ec8327ae\AndroidManifest.xml:50:13-35
	android:exported
		ADDED from [com.google.firebase:firebase-analytics:16.0.1] C:\Users\USER\.gradle\caches\transforms-1\files-1.1\firebase-analytics-16.0.1.aar\c93e50037aac1cf5df075420ec8327ae\AndroidManifest.xml:51:13-37
	android:permission
		ADDED from [com.google.firebase:firebase-analytics:16.0.1] C:\Users\USER\.gradle\caches\transforms-1\files-1.1\firebase-analytics-16.0.1.aar\c93e50037aac1cf5df075420ec8327ae\AndroidManifest.xml:52:13-69
	android:name
		ADDED from [com.google.firebase:firebase-analytics:16.0.1] C:\Users\USER\.gradle\caches\transforms-1\files-1.1\firebase-analytics-16.0.1.aar\c93e50037aac1cf5df075420ec8327ae\AndroidManifest.xml:49:13-87
uses-permission#com.google.android.c2dm.permission.RECEIVE
ADDED from [com.google.firebase:firebase-iid:16.2.0] C:\Users\USER\.gradle\caches\transforms-1\files-1.1\firebase-iid-16.2.0.aar\8e3d19787330005bca9b125a79b78656\AndroidManifest.xml:26:5-82
	android:name
		ADDED from [com.google.firebase:firebase-iid:16.2.0] C:\Users\USER\.gradle\caches\transforms-1\files-1.1\firebase-iid-16.2.0.aar\8e3d19787330005bca9b125a79b78656\AndroidManifest.xml:26:22-79
permission#${applicationId}.permission.C2D_MESSAGE
ADDED from [com.google.firebase:firebase-iid:16.2.0] C:\Users\USER\.gradle\caches\transforms-1\files-1.1\firebase-iid-16.2.0.aar\8e3d19787330005bca9b125a79b78656\AndroidManifest.xml:28:5-30:47
	android:protectionLevel
		ADDED from [com.google.firebase:firebase-iid:16.2.0] C:\Users\USER\.gradle\caches\transforms-1\files-1.1\firebase-iid-16.2.0.aar\8e3d19787330005bca9b125a79b78656\AndroidManifest.xml:30:9-44
	android:name
		ADDED from [com.google.firebase:firebase-iid:16.2.0] C:\Users\USER\.gradle\caches\transforms-1\files-1.1\firebase-iid-16.2.0.aar\8e3d19787330005bca9b125a79b78656\AndroidManifest.xml:29:9-63
permission#com.tapper.ezmath.permission.C2D_MESSAGE
ADDED from [com.google.firebase:firebase-iid:16.2.0] C:\Users\USER\.gradle\caches\transforms-1\files-1.1\firebase-iid-16.2.0.aar\8e3d19787330005bca9b125a79b78656\AndroidManifest.xml:28:5-30:47
	android:protectionLevel
		ADDED from [com.google.firebase:firebase-iid:16.2.0] C:\Users\USER\.gradle\caches\transforms-1\files-1.1\firebase-iid-16.2.0.aar\8e3d19787330005bca9b125a79b78656\AndroidManifest.xml:30:9-44
	android:name
		ADDED from [com.google.firebase:firebase-iid:16.2.0] C:\Users\USER\.gradle\caches\transforms-1\files-1.1\firebase-iid-16.2.0.aar\8e3d19787330005bca9b125a79b78656\AndroidManifest.xml:29:9-63
uses-permission#${applicationId}.permission.C2D_MESSAGE
ADDED from [com.google.firebase:firebase-iid:16.2.0] C:\Users\USER\.gradle\caches\transforms-1\files-1.1\firebase-iid-16.2.0.aar\8e3d19787330005bca9b125a79b78656\AndroidManifest.xml:32:5-79
	android:name
		ADDED from [com.google.firebase:firebase-iid:16.2.0] C:\Users\USER\.gradle\caches\transforms-1\files-1.1\firebase-iid-16.2.0.aar\8e3d19787330005bca9b125a79b78656\AndroidManifest.xml:32:22-76
uses-permission#com.tapper.ezmath.permission.C2D_MESSAGE
ADDED from [com.google.firebase:firebase-iid:16.2.0] C:\Users\USER\.gradle\caches\transforms-1\files-1.1\firebase-iid-16.2.0.aar\8e3d19787330005bca9b125a79b78656\AndroidManifest.xml:32:5-79
	android:name
		ADDED from [com.google.firebase:firebase-iid:16.2.0] C:\Users\USER\.gradle\caches\transforms-1\files-1.1\firebase-iid-16.2.0.aar\8e3d19787330005bca9b125a79b78656\AndroidManifest.xml:32:22-76
meta-data#com.google.firebase.components:com.google.firebase.iid.Registrar
ADDED from [com.google.firebase:firebase-iid:16.2.0] C:\Users\USER\.gradle\caches\transforms-1\files-1.1\firebase-iid-16.2.0.aar\8e3d19787330005bca9b125a79b78656\AndroidManifest.xml:36:13-38:85
	android:value
		ADDED from [com.google.firebase:firebase-iid:16.2.0] C:\Users\USER\.gradle\caches\transforms-1\files-1.1\firebase-iid-16.2.0.aar\8e3d19787330005bca9b125a79b78656\AndroidManifest.xml:38:17-82
	android:name
		ADDED from [com.google.firebase:firebase-iid:16.2.0] C:\Users\USER\.gradle\caches\transforms-1\files-1.1\firebase-iid-16.2.0.aar\8e3d19787330005bca9b125a79b78656\AndroidManifest.xml:37:17-96
receiver#com.google.firebase.iid.FirebaseInstanceIdReceiver
ADDED from [com.google.firebase:firebase-iid:16.2.0] C:\Users\USER\.gradle\caches\transforms-1\files-1.1\firebase-iid-16.2.0.aar\8e3d19787330005bca9b125a79b78656\AndroidManifest.xml:41:9-50:20
	android:exported
		ADDED from [com.google.firebase:firebase-iid:16.2.0] C:\Users\USER\.gradle\caches\transforms-1\files-1.1\firebase-iid-16.2.0.aar\8e3d19787330005bca9b125a79b78656\AndroidManifest.xml:43:13-36
	android:permission
		ADDED from [com.google.firebase:firebase-iid:16.2.0] C:\Users\USER\.gradle\caches\transforms-1\files-1.1\firebase-iid-16.2.0.aar\8e3d19787330005bca9b125a79b78656\AndroidManifest.xml:44:13-73
	android:name
		ADDED from [com.google.firebase:firebase-iid:16.2.0] C:\Users\USER\.gradle\caches\transforms-1\files-1.1\firebase-iid-16.2.0.aar\8e3d19787330005bca9b125a79b78656\AndroidManifest.xml:42:13-78
intent-filter#${applicationId}+com.google.android.c2dm.intent.RECEIVE
ADDED from [com.google.firebase:firebase-iid:16.2.0] C:\Users\USER\.gradle\caches\transforms-1\files-1.1\firebase-iid-16.2.0.aar\8e3d19787330005bca9b125a79b78656\AndroidManifest.xml:45:13-49:29
intent-filter#com.google.android.c2dm.intent.RECEIVE+com.tapper.ezmath
ADDED from [com.google.firebase:firebase-iid:16.2.0] C:\Users\USER\.gradle\caches\transforms-1\files-1.1\firebase-iid-16.2.0.aar\8e3d19787330005bca9b125a79b78656\AndroidManifest.xml:45:13-49:29
action#com.google.android.c2dm.intent.RECEIVE
ADDED from [com.google.firebase:firebase-iid:16.2.0] C:\Users\USER\.gradle\caches\transforms-1\files-1.1\firebase-iid-16.2.0.aar\8e3d19787330005bca9b125a79b78656\AndroidManifest.xml:46:17-81
	android:name
		ADDED from [com.google.firebase:firebase-iid:16.2.0] C:\Users\USER\.gradle\caches\transforms-1\files-1.1\firebase-iid-16.2.0.aar\8e3d19787330005bca9b125a79b78656\AndroidManifest.xml:46:25-78
category#${applicationId}
ADDED from [com.google.firebase:firebase-iid:16.2.0] C:\Users\USER\.gradle\caches\transforms-1\files-1.1\firebase-iid-16.2.0.aar\8e3d19787330005bca9b125a79b78656\AndroidManifest.xml:48:17-61
	android:name
		ADDED from [com.google.firebase:firebase-iid:16.2.0] C:\Users\USER\.gradle\caches\transforms-1\files-1.1\firebase-iid-16.2.0.aar\8e3d19787330005bca9b125a79b78656\AndroidManifest.xml:48:27-58
category#com.tapper.ezmath
ADDED from [com.google.firebase:firebase-iid:16.2.0] C:\Users\USER\.gradle\caches\transforms-1\files-1.1\firebase-iid-16.2.0.aar\8e3d19787330005bca9b125a79b78656\AndroidManifest.xml:48:17-61
	android:name
		ADDED from [com.google.firebase:firebase-iid:16.2.0] C:\Users\USER\.gradle\caches\transforms-1\files-1.1\firebase-iid-16.2.0.aar\8e3d19787330005bca9b125a79b78656\AndroidManifest.xml:48:27-58
service#com.google.firebase.iid.FirebaseInstanceIdService
ADDED from [com.google.firebase:firebase-iid:16.2.0] C:\Users\USER\.gradle\caches\transforms-1\files-1.1\firebase-iid-16.2.0.aar\8e3d19787330005bca9b125a79b78656\AndroidManifest.xml:56:9-62:19
	android:exported
		ADDED from [com.google.firebase:firebase-iid:16.2.0] C:\Users\USER\.gradle\caches\transforms-1\files-1.1\firebase-iid-16.2.0.aar\8e3d19787330005bca9b125a79b78656\AndroidManifest.xml:58:13-36
	android:name
		ADDED from [com.google.firebase:firebase-iid:16.2.0] C:\Users\USER\.gradle\caches\transforms-1\files-1.1\firebase-iid-16.2.0.aar\8e3d19787330005bca9b125a79b78656\AndroidManifest.xml:57:13-77
provider#com.google.firebase.provider.FirebaseInitProvider
ADDED from [com.google.firebase:firebase-common:16.0.0] C:\Users\USER\.gradle\caches\transforms-1\files-1.1\firebase-common-16.0.0.aar\50314bcaae893f5122d119c7fbdcc949\AndroidManifest.xml:9:9-13:39
	android:authorities
		ADDED from [com.google.firebase:firebase-common:16.0.0] C:\Users\USER\.gradle\caches\transforms-1\files-1.1\firebase-common-16.0.0.aar\50314bcaae893f5122d119c7fbdcc949\AndroidManifest.xml:11:13-72
	android:exported
		ADDED from [com.google.firebase:firebase-common:16.0.0] C:\Users\USER\.gradle\caches\transforms-1\files-1.1\firebase-common-16.0.0.aar\50314bcaae893f5122d119c7fbdcc949\AndroidManifest.xml:12:13-37
	android:initOrder
		ADDED from [com.google.firebase:firebase-common:16.0.0] C:\Users\USER\.gradle\caches\transforms-1\files-1.1\firebase-common-16.0.0.aar\50314bcaae893f5122d119c7fbdcc949\AndroidManifest.xml:13:13-36
	android:name
		ADDED from [com.google.firebase:firebase-common:16.0.0] C:\Users\USER\.gradle\caches\transforms-1\files-1.1\firebase-common-16.0.0.aar\50314bcaae893f5122d119c7fbdcc949\AndroidManifest.xml:10:13-77
activity#com.google.android.gms.common.api.GoogleApiActivity
ADDED from [com.google.android.gms:play-services-base:15.0.1] C:\Users\USER\.gradle\caches\transforms-1\files-1.1\play-services-base-15.0.1.aar\436b01fa1908655fa9a35019e5ea6e20\AndroidManifest.xml:23:9-26:75
	android:exported
		ADDED from [com.google.android.gms:play-services-base:15.0.1] C:\Users\USER\.gradle\caches\transforms-1\files-1.1\play-services-base-15.0.1.aar\436b01fa1908655fa9a35019e5ea6e20\AndroidManifest.xml:25:13-37
	android:theme
		ADDED from [com.google.android.gms:play-services-base:15.0.1] C:\Users\USER\.gradle\caches\transforms-1\files-1.1\play-services-base-15.0.1.aar\436b01fa1908655fa9a35019e5ea6e20\AndroidManifest.xml:26:13-72
	android:name
		ADDED from [com.google.android.gms:play-services-base:15.0.1] C:\Users\USER\.gradle\caches\transforms-1\files-1.1\play-services-base-15.0.1.aar\436b01fa1908655fa9a35019e5ea6e20\AndroidManifest.xml:24:13-79
meta-data#com.google.android.gms.version
ADDED from [com.google.android.gms:play-services-basement:15.0.1] C:\Users\USER\.gradle\caches\transforms-1\files-1.1\play-services-basement-15.0.1.aar\bb926056b08e5fcb7dda06c84676af3e\AndroidManifest.xml:23:9-25:69
	android:value
		ADDED from [com.google.android.gms:play-services-basement:15.0.1] C:\Users\USER\.gradle\caches\transforms-1\files-1.1\play-services-basement-15.0.1.aar\bb926056b08e5fcb7dda06c84676af3e\AndroidManifest.xml:25:13-66
	android:name
		ADDED from [com.google.android.gms:play-services-basement:15.0.1] C:\Users\USER\.gradle\caches\transforms-1\files-1.1\play-services-basement-15.0.1.aar\bb926056b08e5fcb7dda06c84676af3e\AndroidManifest.xml:24:13-58
activity#com.facebook.CustomTabMainActivity
ADDED from [com.facebook.android:facebook-common:4.35.0] C:\Users\USER\.gradle\caches\transforms-1\files-1.1\facebook-common-4.35.0.aar\22b30b68eac818cfa009782448bb4405\AndroidManifest.xml:33:9-71
	android:name
		ADDED from [com.facebook.android:facebook-common:4.35.0] C:\Users\USER\.gradle\caches\transforms-1\files-1.1\facebook-common-4.35.0.aar\22b30b68eac818cfa009782448bb4405\AndroidManifest.xml:33:19-68
activity#com.facebook.CustomTabActivity
ADDED from [com.facebook.android:facebook-common:4.35.0] C:\Users\USER\.gradle\caches\transforms-1\files-1.1\facebook-common-4.35.0.aar\22b30b68eac818cfa009782448bb4405\AndroidManifest.xml:34:9-67
	android:name
		ADDED from [com.facebook.android:facebook-common:4.35.0] C:\Users\USER\.gradle\caches\transforms-1\files-1.1\facebook-common-4.35.0.aar\22b30b68eac818cfa009782448bb4405\AndroidManifest.xml:34:19-64
provider#com.facebook.marketing.internal.MarketingInitProvider
ADDED from [com.facebook.android:facebook-marketing:4.35.0] C:\Users\USER\.gradle\caches\transforms-1\files-1.1\facebook-marketing-4.35.0.aar\a4a21d30d0ef15c2679df6fc5d7ec846\AndroidManifest.xml:29:9-32:40
	android:authorities
		ADDED from [com.facebook.android:facebook-marketing:4.35.0] C:\Users\USER\.gradle\caches\transforms-1\files-1.1\facebook-marketing-4.35.0.aar\a4a21d30d0ef15c2679df6fc5d7ec846\AndroidManifest.xml:31:13-73
	android:exported
		ADDED from [com.facebook.android:facebook-marketing:4.35.0] C:\Users\USER\.gradle\caches\transforms-1\files-1.1\facebook-marketing-4.35.0.aar\a4a21d30d0ef15c2679df6fc5d7ec846\AndroidManifest.xml:32:13-37
	android:name
		ADDED from [com.facebook.android:facebook-marketing:4.35.0] C:\Users\USER\.gradle\caches\transforms-1\files-1.1\facebook-marketing-4.35.0.aar\a4a21d30d0ef15c2679df6fc5d7ec846\AndroidManifest.xml:30:13-81
provider#com.facebook.internal.FacebookInitProvider
ADDED from [com.facebook.android:facebook-core:4.35.0] C:\Users\USER\.gradle\caches\transforms-1\files-1.1\facebook-core-4.35.0.aar\98a1683320e19566903ab7a6cff867f3\AndroidManifest.xml:39:9-42:40
	android:authorities
		ADDED from [com.facebook.android:facebook-core:4.35.0] C:\Users\USER\.gradle\caches\transforms-1\files-1.1\facebook-core-4.35.0.aar\98a1683320e19566903ab7a6cff867f3\AndroidManifest.xml:41:13-72
	android:exported
		ADDED from [com.facebook.android:facebook-core:4.35.0] C:\Users\USER\.gradle\caches\transforms-1\files-1.1\facebook-core-4.35.0.aar\98a1683320e19566903ab7a6cff867f3\AndroidManifest.xml:42:13-37
	android:name
		ADDED from [com.facebook.android:facebook-core:4.35.0] C:\Users\USER\.gradle\caches\transforms-1\files-1.1\facebook-core-4.35.0.aar\98a1683320e19566903ab7a6cff867f3\AndroidManifest.xml:40:13-70
receiver#com.facebook.CurrentAccessTokenExpirationBroadcastReceiver
ADDED from [com.facebook.android:facebook-core:4.35.0] C:\Users\USER\.gradle\caches\transforms-1\files-1.1\facebook-core-4.35.0.aar\98a1683320e19566903ab7a6cff867f3\AndroidManifest.xml:44:9-50:20
	android:exported
		ADDED from [com.facebook.android:facebook-core:4.35.0] C:\Users\USER\.gradle\caches\transforms-1\files-1.1\facebook-core-4.35.0.aar\98a1683320e19566903ab7a6cff867f3\AndroidManifest.xml:46:13-37
	android:name
		ADDED from [com.facebook.android:facebook-core:4.35.0] C:\Users\USER\.gradle\caches\transforms-1\files-1.1\facebook-core-4.35.0.aar\98a1683320e19566903ab7a6cff867f3\AndroidManifest.xml:45:13-86
intent-filter#com.facebook.sdk.ACTION_CURRENT_ACCESS_TOKEN_CHANGED
ADDED from [com.facebook.android:facebook-core:4.35.0] C:\Users\USER\.gradle\caches\transforms-1\files-1.1\facebook-core-4.35.0.aar\98a1683320e19566903ab7a6cff867f3\AndroidManifest.xml:47:13-49:29
action#com.facebook.sdk.ACTION_CURRENT_ACCESS_TOKEN_CHANGED
ADDED from [com.facebook.android:facebook-core:4.35.0] C:\Users\USER\.gradle\caches\transforms-1\files-1.1\facebook-core-4.35.0.aar\98a1683320e19566903ab7a6cff867f3\AndroidManifest.xml:48:17-95
	android:name
		ADDED from [com.facebook.android:facebook-core:4.35.0] C:\Users\USER\.gradle\caches\transforms-1\files-1.1\facebook-core-4.35.0.aar\98a1683320e19566903ab7a6cff867f3\AndroidManifest.xml:48:25-92
